Size|insertionBarrierSort|insertionSort|combSort
100|7.882430000094586e-06|1.3689709999837874e-05|6.21252500000935e-05
200|1.4194490000356552e-05|2.4993279999918626e-05|0.0001572853300000432
300|2.0597529999974995e-05|4.015360999989781e-05|0.0002841036200002023
400|3.0331910000285234e-05|5.474885999994683e-05|0.00040642926999996833
500|3.5247129999760316e-05|6.5845600000074e-05|0.0005498519999998308
600|4.387699000002243e-05|8.332177000003327e-05|0.0006669200600001802
700|5.2485269999777984e-05|9.959470999998388e-05|0.0008317006299998298
800|6.221087999989549e-05|0.00011657201999998535|0.0009578551800000668
900|6.660428999996526e-05|0.00013134617000034153|0.0011480503399998198
1000|7.851261999995529e-05|0.00014978351999989315|0.001292115390000248
