Size|insertionBarrierSort|insertionSort|combSort
100|0.0005035931700001584|0.0005061282300000513|9.057328999983128e-05
200|0.0018674022999999097|0.0018651831000000385|0.00020811593999994215
300|0.004119242069999842|0.004171735669999741|0.00035928579000007234
400|0.007430147309999917|0.007684254559999992|0.0005473592599999222
500|0.011876810370000221|0.012092947419999974|0.0007228690500001279
600|0.01765123569|0.01761861182999997|0.0008375540200003683
700|0.024159779829999905|0.024425609690000627|0.0010644298700002964
800|0.0316904979400001|0.03216294354000041|0.0012082335999998861
900|0.041208448950000046|0.04184057779000007|0.0014109755699999481
1000|0.050323213200000085|0.05099362036999963|0.0016512105000000333
