# Fdb version 3
["pdflatex"] 1539541899 "/home/thyron/Files/Algorithms/1/RPZ/rpz.tex" "rpz.pdf" "rpz" 1539541899
  "/home/thyron/.texlive/texmf-var/fonts/tfm/lh/lh-t2a/labi1200.tfm" 1539532431 3592 9415307df98650ffeddaa22e262436dc ""
  "/home/thyron/.texlive/texmf-var/fonts/tfm/lh/lh-t2a/labx1095.tfm" 1539537719 3336 216c27338cb0f11f0d2908d69ce3de23 ""
  "/home/thyron/.texlive/texmf-var/fonts/tfm/lh/lh-t2a/labx1200.tfm" 1539292184 3308 eee81981029f67083258db36df06e523 ""
  "/home/thyron/.texlive/texmf-var/fonts/tfm/lh/lh-t2a/labx1440.tfm" 1539292182 3304 6a543c07045572737981351171e0505e ""
  "/home/thyron/.texlive/texmf-var/fonts/tfm/lh/lh-t2a/larm0600.tfm" 1539532434 3248 7c0b9d76a2cd84ed06764a4c6eea5de4 ""
  "/home/thyron/.texlive/texmf-var/fonts/tfm/lh/lh-t2a/larm0800.tfm" 1539532432 3240 04766e423166ba63b7fbbf132b8618cb ""
  "/home/thyron/.texlive/texmf-var/fonts/tfm/lh/lh-t2a/larm1000.tfm" 1539292183 3220 0e417eaf233b160335902e97259a6c77 ""
  "/home/thyron/.texlive/texmf-var/fonts/tfm/lh/lh-t2a/larm1095.tfm" 1539537715 3264 ead613d557baebcc53cf028c9c92d927 ""
  "/home/thyron/.texlive/texmf-var/fonts/tfm/lh/lh-t2a/larm1200.tfm" 1538387961 3240 c2435f2b5cd66d4930bc29b8df87967e ""
  "/home/thyron/.texlive/texmf-var/fonts/tfm/lh/lh-t2a/larm1440.tfm" 1539292181 3256 3daaa33cf35cf3f354983aa3214ecd7f ""
  "/home/thyron/.texlive/texmf-var/fonts/tfm/lh/lh-t2a/lati1200.tfm" 1539532430 3512 f3a56cfe95a159371df20f73d1eb107d ""
  "/home/thyron/Files/Algorithms/1/RPZ/rpz.tex" 1539540357 1762 338855afd3f4955212b2c459b6887d02 ""
  "/usr/share/texmf-dist/fonts/enc/dvips/cm-super/cm-super-t2a.enc" 1536122179 3141 82d5616418ed8d5de703b3951bedecb4 ""
  "/usr/share/texmf-dist/fonts/map/fontname/texfonts.map" 1536122179 3332 103109f5612ad95229751940c61aada0 ""
  "/usr/share/texmf-dist/fonts/tfm/public/amsfonts/cmextra/cmex7.tfm" 1536122179 1004 54797486969f23fa377b128694d548df ""
  "/usr/share/texmf-dist/fonts/tfm/public/amsfonts/cmextra/cmex8.tfm" 1536122179 988 bdf658c3bfc2d96d3c8b02cfc1c94c20 ""
  "/usr/share/texmf-dist/fonts/tfm/public/amsfonts/symbols/msam10.tfm" 1536122179 916 f87d7c45f9c908e672703b83b72241a3 ""
  "/usr/share/texmf-dist/fonts/tfm/public/amsfonts/symbols/msam7.tfm" 1536122179 928 2dc8d444221b7a635bb58038579b861a ""
  "/usr/share/texmf-dist/fonts/tfm/public/amsfonts/symbols/msbm10.tfm" 1536122179 908 2921f8a10601f252058503cc6570e581 ""
  "/usr/share/texmf-dist/fonts/tfm/public/amsfonts/symbols/msbm7.tfm" 1536122179 940 228d6584342e91276bf566bcf9716b83 ""
  "/usr/share/texmf-dist/fonts/tfm/public/cm/cmex10.tfm" 1536122179 992 662f679a0b3d2d53c1b94050fdaa3f50 ""
  "/usr/share/texmf-dist/fonts/tfm/public/cm/cmmi10.tfm" 1536122179 1528 abec98dbc43e172678c11b3b9031252a ""
  "/usr/share/texmf-dist/fonts/tfm/public/cm/cmmi12.tfm" 1536122179 1524 4414a8315f39513458b80dfc63bff03a ""
  "/usr/share/texmf-dist/fonts/tfm/public/cm/cmmi6.tfm" 1536122179 1512 f21f83efb36853c0b70002322c1ab3ad ""
  "/usr/share/texmf-dist/fonts/tfm/public/cm/cmmi8.tfm" 1536122179 1520 eccf95517727cb11801f4f1aee3a21b4 ""
  "/usr/share/texmf-dist/fonts/tfm/public/cm/cmr10.tfm" 1536122179 1296 45809c5a464d5f32c8f98ba97c1bb47f ""
  "/usr/share/texmf-dist/fonts/tfm/public/cm/cmr12.tfm" 1536122179 1288 655e228510b4c2a1abe905c368440826 ""
  "/usr/share/texmf-dist/fonts/tfm/public/cm/cmr6.tfm" 1536122179 1300 b62933e007d01cfd073f79b963c01526 ""
  "/usr/share/texmf-dist/fonts/tfm/public/cm/cmr8.tfm" 1536122179 1292 21c1c5bfeaebccffdb478fd231a0997d ""
  "/usr/share/texmf-dist/fonts/tfm/public/cm/cmsy10.tfm" 1536122179 1124 6c73e740cf17375f03eec0ee63599741 ""
  "/usr/share/texmf-dist/fonts/tfm/public/cm/cmsy6.tfm" 1536122179 1116 933a60c408fc0a863a92debe84b2d294 ""
  "/usr/share/texmf-dist/fonts/tfm/public/cm/cmsy8.tfm" 1536122179 1120 8b7d695260f3cff42e636090a8002094 ""
  "/usr/share/texmf-dist/fonts/type1/public/amsfonts/cm/cmex10.pfb" 1536122179 30251 6afa5cb1d0204815a708a080681d4674 ""
  "/usr/share/texmf-dist/fonts/type1/public/amsfonts/cm/cmmi12.pfb" 1536122179 36741 fa121aac0049305630cf160b86157ee4 ""
  "/usr/share/texmf-dist/fonts/type1/public/amsfonts/cm/cmmi8.pfb" 1536122179 35469 70d41d2b9ea31d5d813066df7c99281c ""
  "/usr/share/texmf-dist/fonts/type1/public/amsfonts/cm/cmr12.pfb" 1536122179 32722 d7379af29a190c3f453aba36302ff5a9 ""
  "/usr/share/texmf-dist/fonts/type1/public/amsfonts/cm/cmr8.pfb" 1536122179 32726 0a1aea6fcd6468ee2cf64d891f5c43c8 ""
  "/usr/share/texmf-dist/fonts/type1/public/amsfonts/cm/cmsy10.pfb" 1536122179 32569 5e5ddc8df908dea60932f3c484a54c0d ""
  "/usr/share/texmf-dist/fonts/type1/public/amsfonts/cm/cmsy8.pfb" 1536122179 32626 4f5c1b83753b1dd3a97d1b399a005b4b ""
  "/usr/share/texmf-dist/fonts/type1/public/cm-super/sfbi1200.pfb" 1536122179 205875 5958bf9326f04501f7006947acfbcae1 ""
  "/usr/share/texmf-dist/fonts/type1/public/cm-super/sfbx1095.pfb" 1536122179 154600 ea54091d31de803b613ba9e80ca51709 ""
  "/usr/share/texmf-dist/fonts/type1/public/cm-super/sfbx1200.pfb" 1536122179 140176 d4962f948b4cc0adf4d3dde77a128c95 ""
  "/usr/share/texmf-dist/fonts/type1/public/cm-super/sfbx1440.pfb" 1536122179 135942 859a90cad7494a1e79c94baf546d7de5 ""
  "/usr/share/texmf-dist/fonts/type1/public/cm-super/sfrm0800.pfb" 1536122179 164227 3df942b4ff2124425d8fb1b6d3e01c7a ""
  "/usr/share/texmf-dist/fonts/type1/public/cm-super/sfrm1000.pfb" 1536122179 138258 6525c253f16cededa14c7fd0da7f67b2 ""
  "/usr/share/texmf-dist/fonts/type1/public/cm-super/sfrm1095.pfb" 1536122179 145929 f25e56369a345c4ff583b067cd87ce8e ""
  "/usr/share/texmf-dist/fonts/type1/public/cm-super/sfrm1200.pfb" 1536122179 136101 f533469f523533d38317ab5729d00c8a ""
  "/usr/share/texmf-dist/fonts/type1/public/cm-super/sfrm1440.pfb" 1536122179 131078 d96015a2fa5c350129e933ca070b2484 ""
  "/usr/share/texmf-dist/fonts/type1/public/cm-super/sfti1200.pfb" 1536122179 198221 ca5aa71411090ef358a6cc78b7458365 ""
  "/usr/share/texmf-dist/tex/context/base/mkii/supp-pdf.mkii" 1536122179 71627 94eb9990bed73c364d7f53f960cc8c5b ""
  "/usr/share/texmf-dist/tex/generic/babel-english/english.ldf" 1536122179 7008 9ff5fdcc865b01beca2b0fe4a46231d4 ""
  "/usr/share/texmf-dist/tex/generic/babel-russian/russianb.ldf" 1536123719 26091 c8ae0c5e664e3887bd445441d24e5ab6 ""
  "/usr/share/texmf-dist/tex/generic/babel/babel.def" 1536122179 71081 f5c586137a2a652981f35ef2d9f9c131 ""
  "/usr/share/texmf-dist/tex/generic/babel/babel.sty" 1536122179 16004 c747750e5d8425d78b368bcea8a4c035 ""
  "/usr/share/texmf-dist/tex/generic/babel/switch.def" 1536122179 13069 ef22aaa99c7c8ea68434a26965f5b577 ""
  "/usr/share/texmf-dist/tex/generic/babel/txtbabel.def" 1536122179 7435 6c566fc19b3503b2b2da8bb4550f2b58 ""
  "/usr/share/texmf-dist/tex/generic/ifxetex/ifxetex.sty" 1536122179 1458 43ab4710dc82f3edeabecd0d099626b2 ""
  "/usr/share/texmf-dist/tex/generic/oberdiek/gettitlestring.sty" 1536122179 8237 3b62ef1f7e2c23a328c814b3893bc11f ""
  "/usr/share/texmf-dist/tex/generic/oberdiek/hobsub-generic.sty" 1536122179 185313 3e16abd014cb2c328020e45d63ed7f45 ""
  "/usr/share/texmf-dist/tex/generic/oberdiek/hobsub-hyperref.sty" 1536122179 70864 bcd5b216757bd619ae692a151d90085d ""
  "/usr/share/texmf-dist/tex/generic/oberdiek/ifpdf.sty" 1536122179 1251 d170e11a3246c3392bc7f59595af42cb ""
  "/usr/share/texmf-dist/tex/generic/oberdiek/ifvtex.sty" 1536122179 6797 90b7f83b0ad46826bc16058b1e3d48df ""
  "/usr/share/texmf-dist/tex/generic/pgf/basiclayer/pgfcore.code.tex" 1536122179 1006 b103be0bfc8c1682ff1fa9760697a329 ""
  "/usr/share/texmf-dist/tex/generic/pgf/basiclayer/pgfcorearrows.code.tex" 1536122179 43226 167a99346bfe2676e3efcdde2d81fe45 ""
  "/usr/share/texmf-dist/tex/generic/pgf/basiclayer/pgfcoreexternal.code.tex" 1536122179 19302 4f089dc590e71f7331e6d5b5ea85273b ""
  "/usr/share/texmf-dist/tex/generic/pgf/basiclayer/pgfcoregraphicstate.code.tex" 1536122179 6068 edae1e768a7d8d8f0f00e953d2b0153e ""
  "/usr/share/texmf-dist/tex/generic/pgf/basiclayer/pgfcoreimage.code.tex" 1536122179 7041 a891ad72049e17c4e366c40ca37b0ccb ""
  "/usr/share/texmf-dist/tex/generic/pgf/basiclayer/pgfcorelayers.code.tex" 1536122179 4625 40c07e9f6f2f7c674704b3f2055560ce ""
  "/usr/share/texmf-dist/tex/generic/pgf/basiclayer/pgfcoreobjects.code.tex" 1536122179 2631 7eefa6cdbefd8d4e2bad7262cf1094cd ""
  "/usr/share/texmf-dist/tex/generic/pgf/basiclayer/pgfcorepathconstruct.code.tex" 1536122179 43477 81143b33d9ebafdeead07ede13372427 ""
  "/usr/share/texmf-dist/tex/generic/pgf/basiclayer/pgfcorepathprocessing.code.tex" 1536122179 17436 8d99d4113be311daf23deff86991ee7d ""
  "/usr/share/texmf-dist/tex/generic/pgf/basiclayer/pgfcorepathusage.code.tex" 1536122179 20772 c57e34db4aa7b1da013169d04b743eac ""
  "/usr/share/texmf-dist/tex/generic/pgf/basiclayer/pgfcorepatterns.code.tex" 1536122179 9641 711f0edc22c180a5caf168b6e8970057 ""
  "/usr/share/texmf-dist/tex/generic/pgf/basiclayer/pgfcorepoints.code.tex" 1536122179 34516 658a71478d21df554bce9d9cd436203a ""
  "/usr/share/texmf-dist/tex/generic/pgf/basiclayer/pgfcorequick.code.tex" 1536122179 3052 e5672c657232fd63b0a9853b0746297c ""
  "/usr/share/texmf-dist/tex/generic/pgf/basiclayer/pgfcorescopes.code.tex" 1536122179 16669 4ec6e40088fc6de6334b443fe2dc59f0 ""
  "/usr/share/texmf-dist/tex/generic/pgf/basiclayer/pgfcoreshade.code.tex" 1536122179 21541 4cd19f8ff7dd74d5aa7d803a6397af84 ""
  "/usr/share/texmf-dist/tex/generic/pgf/basiclayer/pgfcoretransformations.code.tex" 1536122179 19998 d77fef95c7369827753d17fd11be19c4 ""
  "/usr/share/texmf-dist/tex/generic/pgf/basiclayer/pgfcoretransparency.code.tex" 1536122179 8943 2e2495b057f8f0035b5568394d489963 ""
  "/usr/share/texmf-dist/tex/generic/pgf/frontendlayer/tikz/libraries/tikzlibraryarrows.code.tex" 1536122179 437 cf40f841f40822be6cb995f8b47112fd ""
  "/usr/share/texmf-dist/tex/generic/pgf/frontendlayer/tikz/libraries/tikzlibraryfadings.code.tex" 1536122179 1298 83d7449064b0f0f089f1898a244b6d16 ""
  "/usr/share/texmf-dist/tex/generic/pgf/frontendlayer/tikz/libraries/tikzlibrarypositioning.code.tex" 1536122179 4034 0a8cd33cf30d262ec971380666acb2d0 ""
  "/usr/share/texmf-dist/tex/generic/pgf/frontendlayer/tikz/libraries/tikzlibraryshadows.code.tex" 1536122179 3001 d54bab2f783098ed890fabbeb437b04f ""
  "/usr/share/texmf-dist/tex/generic/pgf/frontendlayer/tikz/libraries/tikzlibrarytopaths.code.tex" 1536122179 11599 d694704a88e2f9007c996d3a6a4d629c ""
  "/usr/share/texmf-dist/tex/generic/pgf/frontendlayer/tikz/tikz.code.tex" 1536122179 176652 1c2926908e2b356d454795c35385d580 ""
  "/usr/share/texmf-dist/tex/generic/pgf/libraries/pgflibraryarrows.code.tex" 1536122179 31927 7acd27f90dd95ce67ad32166cd0b95ec ""
  "/usr/share/texmf-dist/tex/generic/pgf/libraries/pgflibraryfadings.code.tex" 1536122179 2647 defb4a59c2a1d36127a1ac6eebb4a5c1 ""
  "/usr/share/texmf-dist/tex/generic/pgf/libraries/pgflibraryplothandlers.code.tex" 1536122179 32969 dbcfd5a7de6a0f7255c333ef60287d59 ""
  "/usr/share/texmf-dist/tex/generic/pgf/math/pgfmath.code.tex" 1536122179 454 9e9e7c99f4da4f41698be21eaef4938e ""
  "/usr/share/texmf-dist/tex/generic/pgf/math/pgfmathcalc.code.tex" 1536122179 13416 940ea6971d7a65dc440d3479939c66ae ""
  "/usr/share/texmf-dist/tex/generic/pgf/math/pgfmathfloat.code.tex" 1536122179 94097 62ac62cda46eb715560dc27f9ed6e8b1 ""
  "/usr/share/texmf-dist/tex/generic/pgf/math/pgfmathfunctions.base.code.tex" 1536122179 9375 5adc70f722abd29fc250d59e0694b548 ""
  "/usr/share/texmf-dist/tex/generic/pgf/math/pgfmathfunctions.basic.code.tex" 1536122179 22069 7c21c42b15718ce922f36235be360490 ""
  "/usr/share/texmf-dist/tex/generic/pgf/math/pgfmathfunctions.code.tex" 1536122179 8210 a7be5b52ef3d2c087b7dc3d52898b67e ""
  "/usr/share/texmf-dist/tex/generic/pgf/math/pgfmathfunctions.comparison.code.tex" 1536122179 3534 c7f28fbac13616513e513efe93b8569b ""
  "/usr/share/texmf-dist/tex/generic/pgf/math/pgfmathfunctions.integerarithmetics.code.tex" 1536122179 3167 7c9394e79aac27db96a92f9b2792b858 ""
  "/usr/share/texmf-dist/tex/generic/pgf/math/pgfmathfunctions.misc.code.tex" 1536122179 9289 261407875b9dbb0194691c3eb893610f ""
  "/usr/share/texmf-dist/tex/generic/pgf/math/pgfmathfunctions.random.code.tex" 1536122179 7078 946ddf4a7e57219b6afdbad98eb6731b ""
  "/usr/share/texmf-dist/tex/generic/pgf/math/pgfmathfunctions.round.code.tex" 1536122179 2688 139c6abc86761a6190c2f4bef5d752be ""
  "/usr/share/texmf-dist/tex/generic/pgf/math/pgfmathfunctions.trigonometric.code.tex" 1536122179 92284 dcf023dbaa84e6c50e11c2f79fe8cfa6 ""
  "/usr/share/texmf-dist/tex/generic/pgf/math/pgfmathparser.code.tex" 1536122179 35430 046e15fbb65e74d8f0e7945f99741fdb ""
  "/usr/share/texmf-dist/tex/generic/pgf/math/pgfmathutil.code.tex" 1536122179 7099 f44d505bae6c7c2b933cdd63441db4b9 ""
  "/usr/share/texmf-dist/tex/generic/pgf/modules/pgfmodulematrix.code.tex" 1536122179 20934 2328bd2e04520e1ab077ac4ee13b8935 ""
  "/usr/share/texmf-dist/tex/generic/pgf/modules/pgfmoduleplot.code.tex" 1536122179 16203 83cbe1220e389eeee283a6168f9a567b ""
  "/usr/share/texmf-dist/tex/generic/pgf/modules/pgfmoduleshapes.code.tex" 1536122179 42906 d54376d96df1a2ae2d33fb722236d8e9 ""
  "/usr/share/texmf-dist/tex/generic/pgf/systemlayer/pgf.cfg" 1536122179 978 15af626ebd3d4d790aac19170dac04f2 ""
  "/usr/share/texmf-dist/tex/generic/pgf/systemlayer/pgfsys-common-pdf.def" 1536122179 5437 d91f93ed61ecdc57e119849b2d784a0b ""
  "/usr/share/texmf-dist/tex/generic/pgf/systemlayer/pgfsys-pdftex.def" 1536122179 13507 809d848d9262638e1b1705a68a73c566 ""
  "/usr/share/texmf-dist/tex/generic/pgf/systemlayer/pgfsys.code.tex" 1536122179 35113 2ccc50c1c9573e4bac9230d030f9c67c ""
  "/usr/share/texmf-dist/tex/generic/pgf/systemlayer/pgfsysprotocol.code.tex" 1536122179 1983 b5994ebbcee17f1ba3d29bb1bd696fcf ""
  "/usr/share/texmf-dist/tex/generic/pgf/systemlayer/pgfsyssoftpath.code.tex" 1536122179 7881 d459d6057e13d10ce7a227ae44b7295e ""
  "/usr/share/texmf-dist/tex/generic/pgf/utilities/pgffor.code.tex" 1536122179 22211 d696ef78c12269178882d218b2cf191d ""
  "/usr/share/texmf-dist/tex/generic/pgf/utilities/pgfkeys.code.tex" 1536122179 36194 e194ef4e0b396b531a3891feb4b1cc22 ""
  "/usr/share/texmf-dist/tex/generic/pgf/utilities/pgfkeysfiltered.code.tex" 1536122179 33377 af391d6ad1bfcbe2278e191f48e43ba8 ""
  "/usr/share/texmf-dist/tex/generic/pgf/utilities/pgfrcs.code.tex" 1536122179 2536 a3b0529d815a2759ba157b56610a6377 ""
  "/usr/share/texmf-dist/tex/generic/pgf/utilities/pgfutil-common-lists.tex" 1536122179 6833 114eda2cf1d348e0e7e477a1a4dc1941 ""
  "/usr/share/texmf-dist/tex/generic/pgf/utilities/pgfutil-common.tex" 1536122179 16501 ab0135765e27b6b8dae047831fe84818 ""
  "/usr/share/texmf-dist/tex/generic/pgf/utilities/pgfutil-latex.def" 1536122179 5544 294baac9629ba59f675b1f2027ad7136 ""
  "/usr/share/texmf-dist/tex/latex/amsfonts/amsfonts.sty" 1536122179 5949 3f3fd50a8cc94c3d4cbf4fc66cd3df1c ""
  "/usr/share/texmf-dist/tex/latex/amsfonts/amssymb.sty" 1536122179 13829 94730e64147574077f8ecfea9bb69af4 ""
  "/usr/share/texmf-dist/tex/latex/amsfonts/umsa.fd" 1536122179 961 6518c6525a34feb5e8250ffa91731cff ""
  "/usr/share/texmf-dist/tex/latex/amsfonts/umsb.fd" 1536122179 961 d02606146ba5601b5645f987c92e6193 ""
  "/usr/share/texmf-dist/tex/latex/amsmath/amsbsy.sty" 1536122179 2211 ca7ce284ab93c8eecdc6029dc5ccbd73 ""
  "/usr/share/texmf-dist/tex/latex/amsmath/amsgen.sty" 1536122179 4161 7f6eb9092061a11f87d08ed13515b48d ""
  "/usr/share/texmf-dist/tex/latex/amsmath/amsmath.sty" 1536122179 84354 7292177bb735c466b78634ee4efd537e ""
  "/usr/share/texmf-dist/tex/latex/amsmath/amsopn.sty" 1536122179 4116 32e6abd27229755a83a8b7f18e583890 ""
  "/usr/share/texmf-dist/tex/latex/amsmath/amstext.sty" 1536122179 2432 8ff93b1137020e8f21930562a874ae66 ""
  "/usr/share/texmf-dist/tex/latex/base/flafter.sty" 1536122179 9832 2ce25b92e2e7269399bb26b7adb90ac8 ""
  "/usr/share/texmf-dist/tex/latex/base/fontenc.sty" 1536122179 4573 ae83473dfe6aea3508ab88d22c4457b2 ""
  "/usr/share/texmf-dist/tex/latex/base/inputenc.sty" 1536122179 5052 f2525dfd6e503dc383e90b568c6c9f02 ""
  "/usr/share/texmf-dist/tex/latex/base/leqno.clo" 1536122179 1961 c713eed378b7c7dd1bf04831f994b522 ""
  "/usr/share/texmf-dist/tex/latex/base/omlcmr.fd" 1536122179 2473 8052e27f66be3b6e63e955171dae6bfe ""
  "/usr/share/texmf-dist/tex/latex/base/omscmr.fd" 1536122179 2472 aa08940f0a4dc6c24ae9f943b04ae0b9 ""
  "/usr/share/texmf-dist/tex/latex/base/size12.clo" 1536122179 8305 4e2a90a380a17c0472dd191689c67cbc ""
  "/usr/share/texmf-dist/tex/latex/base/t2aenc.dfu" 1536122179 9438 7822a3a266d2a7807a1c4e1fe1584b64 ""
  "/usr/share/texmf-dist/tex/latex/caption/caption.sty" 1536122179 66287 d36a847b369384f469bcc508af4f1b98 ""
  "/usr/share/texmf-dist/tex/latex/caption/caption3.sty" 1536122179 66886 6e8b633cfe0c40edf5496588a2f4d7f8 ""
  "/usr/share/texmf-dist/tex/latex/caption/ltcaption.sty" 1536122179 7065 626500ea96598e448009c40662fa0670 ""
  "/usr/share/texmf-dist/tex/latex/cmap/cmap.sty" 1536122179 2883 427a7f7cb58418a0394dbd85c80668f6 ""
  "/usr/share/texmf-dist/tex/latex/cmap/ot1.cmap" 1536122179 1207 4e0d96772f0d338847cbfb4eca683c81 ""
  "/usr/share/texmf-dist/tex/latex/cmap/t2a.cmap" 1536122179 1872 8a484407d6912048284390d9f7606e28 ""
  "/usr/share/texmf-dist/tex/latex/cyrillic/koi8-r.def" 1536123719 4237 8351b64f9e52c40be5aa0f2f780a5570 ""
  "/usr/share/texmf-dist/tex/latex/cyrillic/t2acmr.fd" 1536123719 2562 d9552c7bbba7c739be0e3edc79b79dbb ""
  "/usr/share/texmf-dist/tex/latex/cyrillic/t2aenc.def" 1536123719 12038 0675a914f4ef655c59b5d82e90103345 ""
  "/usr/share/texmf-dist/tex/latex/footmisc/footmisc.sty" 1536124628 25776 d28bd6d82f168f8cb2268584b67a2a98 ""
  "/usr/share/texmf-dist/tex/latex/geometry/geometry.sty" 1536122179 41645 0653033a985e06c69a2a9cea9a95e31a ""
  "/usr/share/texmf-dist/tex/latex/graphics-cfg/color.cfg" 1536122179 1213 620bba36b25224fa9b7e1ccb4ecb76fd ""
  "/usr/share/texmf-dist/tex/latex/graphics-cfg/graphics.cfg" 1536122179 1224 978390e9c2234eab29404bc21b268d1e ""
  "/usr/share/texmf-dist/tex/latex/graphics-def/pdftex.def" 1536122179 17334 520b9b85ad8a2a48eda3f643e27a5179 ""
  "/usr/share/texmf-dist/tex/latex/graphics/graphics.sty" 1536122179 15272 5a97061616e0c8b2aa79c6615ff769f4 ""
  "/usr/share/texmf-dist/tex/latex/graphics/graphicx.sty" 1536122179 9063 d0a305975932762117cd1f06a582f896 ""
  "/usr/share/texmf-dist/tex/latex/graphics/keyval.sty" 1536122179 2591 6404d0c7d28505fb38ce0d86c2e28ae7 ""
  "/usr/share/texmf-dist/tex/latex/graphics/trig.sty" 1536122179 3977 cb9221976ed8a183afad65b59aa8629a ""
  "/usr/share/texmf-dist/tex/latex/hyperref/hpdftex.def" 1536122179 51699 9069fc983fff0db91d59a15af144ad62 ""
  "/usr/share/texmf-dist/tex/latex/hyperref/hyperref.sty" 1536122179 234088 2c849389d62d41c593d9f5176c4116ab ""
  "/usr/share/texmf-dist/tex/latex/hyperref/nameref.sty" 1536122179 12949 81e4e808884a8f0e276b69410e234656 ""
  "/usr/share/texmf-dist/tex/latex/hyperref/pd1enc.def" 1536122179 14098 4e70bf396c7c265bd8b0e5cab3fd3d4d ""
  "/usr/share/texmf-dist/tex/latex/hyperref/puenc.def" 1536122179 122411 10b605a58a28bbe5d61db37da4a85beb ""
  "/usr/share/texmf-dist/tex/latex/latexconfig/epstopdf-sys.cfg" 1536122179 678 4792914a8f45be57bb98413425e4c7af ""
  "/usr/share/texmf-dist/tex/latex/latexconfig/hyperref.cfg" 1536122179 235 6031e5765137be07eed51a510b2b8fb7 ""
  "/usr/share/texmf-dist/tex/latex/listings/listings.cfg" 1536122179 1828 dcfaf5610ea22a61c7baac6f2ca3cb43 ""
  "/usr/share/texmf-dist/tex/latex/listings/listings.sty" 1536122179 80394 a25e563baccecba00b03b4a462eb4141 ""
  "/usr/share/texmf-dist/tex/latex/listings/lstlang1.sty" 1536122179 203555 e607ed8f3cb83d0d64c452db0f937212 ""
  "/usr/share/texmf-dist/tex/latex/listings/lstmisc.sty" 1536122179 77021 1c90ba86bdf6da80a6b661f51d7f0175 ""
  "/usr/share/texmf-dist/tex/latex/mmap/oml.cmap" 1536124628 1866 c1c12138091b4a8edd4a24a940e6f792 ""
  "/usr/share/texmf-dist/tex/latex/mmap/oms.cmap" 1536124628 2370 3b1f71b14b974f07cef532db09ae9ee0 ""
  "/usr/share/texmf-dist/tex/latex/mmap/omx.cmap" 1536124628 3001 252c8ca42b06a22cb1a11c0e47790c6e ""
  "/usr/share/texmf-dist/tex/latex/ms/everyshi.sty" 1536122179 3878 6aa7c08ff2621006e0603349e40a30a8 ""
  "/usr/share/texmf-dist/tex/latex/multirow/multirow.sty" 1536124628 5022 b6901f8118cedeb7fc98d54ebdf4f6e6 ""
  "/usr/share/texmf-dist/tex/latex/oberdiek/auxhook.sty" 1536122179 3834 4363110eb0ef1eb2b71c8fcbcdb6c357 ""
  "/usr/share/texmf-dist/tex/latex/oberdiek/epstopdf-base.sty" 1536122179 12095 5337833c991d80788a43d3ce26bd1c46 ""
  "/usr/share/texmf-dist/tex/latex/oberdiek/grfext.sty" 1536122179 7075 2fe3d848bba95f139de11ded085e74aa ""
  "/usr/share/texmf-dist/tex/latex/oberdiek/kvoptions.sty" 1536122179 22417 1d9df1eb66848aa31b18a593099cf45c ""
  "/usr/share/texmf-dist/tex/latex/oberdiek/rerunfilecheck.sty" 1536122179 9581 023642318cef9f4677efe364de1e2a27 ""
  "/usr/share/texmf-dist/tex/latex/paralist/paralist.sty" 1536124628 14857 82c76ebe8f06becf69ab309565b2a0cb ""
  "/usr/share/texmf-dist/tex/latex/pgf/basiclayer/pgf.sty" 1536122179 1197 8a80cdde14696a9198f1793a55dcf332 ""
  "/usr/share/texmf-dist/tex/latex/pgf/basiclayer/pgfcore.sty" 1536122179 410 5bf12ea7330e5f12c445332a4fe9a263 ""
  "/usr/share/texmf-dist/tex/latex/pgf/compatibility/pgfcomp-version-0-65.sty" 1536122179 21115 facf03b7dbe5ea2f5f1dce1ac84b5d05 ""
  "/usr/share/texmf-dist/tex/latex/pgf/compatibility/pgfcomp-version-1-18.sty" 1536122179 1091 d9163d29def82ee90370c8a63667742c ""
  "/usr/share/texmf-dist/tex/latex/pgf/frontendlayer/tikz.sty" 1536122179 339 592cf35cba3d400082b8a9a5d0199d70 ""
  "/usr/share/texmf-dist/tex/latex/pgf/math/pgfmath.sty" 1536122179 306 0796eafca5e159e6ec2167a6d22d81b1 ""
  "/usr/share/texmf-dist/tex/latex/pgf/systemlayer/pgfsys.sty" 1536122179 443 0b2e781830192df35c0fd357cf13e26e ""
  "/usr/share/texmf-dist/tex/latex/pgf/utilities/pgffor.sty" 1536122179 348 8927fde343487e003b01a4c2ca34073b ""
  "/usr/share/texmf-dist/tex/latex/pgf/utilities/pgfkeys.sty" 1536122179 274 4cad6e665cc93ac2ac979039a94fa1e1 ""
  "/usr/share/texmf-dist/tex/latex/pgf/utilities/pgfrcs.sty" 1536122179 325 2bcd023400636339210573e2b3ee298b ""
  "/usr/share/texmf-dist/tex/latex/t2/mathtext.sty" 1536123719 4742 af4f7a54e5c8f1f435b4d2dd60d5f846 ""
  "/usr/share/texmf-dist/tex/latex/tools/array.sty" 1536122179 13555 1c149904152e53130811b31763000c97 ""
  "/usr/share/texmf-dist/tex/latex/tools/enumerate.sty" 1536122179 3465 3f63ff30365d38132fb55859c9cabd4d ""
  "/usr/share/texmf-dist/tex/latex/tools/indentfirst.sty" 1536122179 1615 dba466e323af4fcd4a6acb87444d96c3 ""
  "/usr/share/texmf-dist/tex/latex/tools/longtable.sty" 1536122179 12081 a8103ee8653c06c3c5b3fb138f20b5e5 ""
  "/usr/share/texmf-dist/tex/latex/ucs/data/uni-0.def" 1536124628 7784 086a50b784a20762a031889b73f97126 ""
  "/usr/share/texmf-dist/tex/latex/ucs/data/uni-32.def" 1536124628 8033 ee5a06eead35a732222f876800c8f10f ""
  "/usr/share/texmf-dist/tex/latex/ucs/data/uni-4.def" 1536124628 8709 1d3e18d352cac8dfca3961538455774f ""
  "/usr/share/texmf-dist/tex/latex/ucs/data/uni-global.def" 1536124628 1375 8a855db83af5d6753ccbbd32e6a8a901 ""
  "/usr/share/texmf-dist/tex/latex/ucs/ucs.sty" 1536124628 27982 5723d81d568db410592a59b85fb3eaae ""
  "/usr/share/texmf-dist/tex/latex/ucs/ucsencs.def" 1536124628 22368 c53c9d0d16c65bef2b157515c9d9f658 ""
  "/usr/share/texmf-dist/tex/latex/ucs/utf8x.def" 1536124628 8036 21f7ac37aafb6cfeddbb196b8bfd6280 ""
  "/usr/share/texmf-dist/tex/latex/url/url.sty" 1536122179 12796 8edb7d69a20b857904dd0ea757c14ec9 ""
  "/usr/share/texmf-dist/tex/latex/was/icomma.sty" 1536124628 1018 df058db1896806f044e2233bb506d425 ""
  "/usr/share/texmf-dist/tex/latex/wrapfig/wrapfig.sty" 1536124628 26220 3701aebf80ccdef248c0c20dd062fea9 ""
  "/usr/share/texmf-dist/tex/latex/xcolor/xcolor.sty" 1536122179 55589 34128738f682d033422ca125f82e5d62 ""
  "/usr/share/texmf-dist/web2c/texmf.cnf" 1536122179 33301 a3134070eacafb10b1f371612ce2650d ""
  "/var/lib/texmf/fonts/map/pdftex/updmap/pdftex.map" 1539293755 2878277 b2cd7e0db731d54027013bde208e4860 ""
  "/var/lib/texmf/web2c/pdftex/pdflatex.fmt" 1538387112 7908119 07a02e321f0a02db13603c4c8704a194 ""
  "0-title.aux" 1539541899 952 2a1e7640652e2468bf478c9e590ca6e9 ""
  "0-title.tex" 1539541898 2406 9769df2cb14a0f7fdaf19e9f24c8b4d7 ""
  "1-intro.aux" 1539541899 1009 2f263baaab1388437b723336fd10517a ""
  "1-intro.tex" 1539538939 1145 63dee196354e8159d2b85df652f009f2 ""
  "2-analysis.aux" 1539541899 2716 bf2793c44ba66c481461556c28fa3110 ""
  "2-analysis.tex" 1539541871 1862 21b02e6336a9bc27bcd41cb24daac1fd ""
  "3-design.aux" 1539541899 1351 a8581efb535fdfa941d0ef9dec1f05a5 ""
  "3-design.tex" 1539536866 330 5471f20f10624cfddd313903996f0c4a ""
  "4-impl.aux" 1539541899 4917 b0240f1d26b4c1d7ddf98aa015affdb5 ""
  "4-impl.tex" 1539539011 4215 f8a7f93a1e1d31df5bda27b50b3abfd1 ""
  "5-research.aux" 1539541899 1288 a87d50b863750ccd48ac7be99507ba14 ""
  "5-research.tex" 1539281643 59 4415ea47b61136f1b883ac59dc4e1418 ""
  "G2-105.sty" 1539281643 24195 79ed02bd2d1e49170a623a0394d2ef8a ""
  "G7-32.cls" 1539281643 3092 d5bcd5a7839c8c05b85588ba1640c669 ""
  "G7-32.sty" 1539281643 5587 5dcf07b1cf347a47a2d801c34b5ef69a ""
  "GostBase.clo" 1539281643 1312 cb4d346b24cf53fd0a97e9fb3397b8a6 ""
  "iftex.sty" 1539281643 2560 68a7cdbd7a5424fa22f4176117a417e9 ""
  "listings.inc.tex" 1539281643 5102 02b066746cd3d50a29097433fec71c64 ""
  "macros.inc.tex" 1539281643 69 3b2a9359c82440cc4a629147b4c87040 ""
  "preamble.inc.tex" 1539539891 2374 8da5fcce7fcd233d6a7e3280c4b4c695 ""
  "rpz.aux" 1539541899 1175 6841dd933b8d7983690426af43e608fa ""
  "rpz.out" 1539541899 1904 f2a7db39a4693b24aa1bb2e0a8c1de44 ""
  "rpz.tex" 1539540357 1762 338855afd3f4955212b2c459b6887d02 ""
  "rpz.toc" 1539541899 2777 364d3c9e2ba208c37cb216a799aebfff ""
  "slashbox.sty" 1539281643 2762 a83af4729e3dc265bf8c6553e7803238 ""
  (generated)
  "macros.inc.aux"
  "listings.inc.aux"
  "rpz.out"
  "5-research.aux"
  "rpz.toc"
  "4-impl.aux"
  "3-design.aux"
  "2-analysis.aux"
  "preamble.inc.aux"
  "rpz.aux"
  "1-intro.aux"
  "0-title.aux"
  "rpz.pdf"
  "rpz.log"
