%!PS-Adobe-3.0 EPSF-3.0
%%BoundingBox: 0 0 120 311
%%Creator: yExport 1.5
%%Producer: org.freehep.graphicsio.ps.EPSGraphics2D Revision: 12753 
%%For: 
%%Title: 
%%CreationDate: Friday, October 19, 2018 1:42:55 AM MSK
%%LanguageLevel: 3
%%EndComments
%%BeginProlog
100 dict dup begin

%
% File: org/freehep/graphicsio.ps/PSProlog.txt
% Author: Charles Loomis
%

% Redefinitions which save some space in the output file.  These are also
% the same as the PDF operators.
/q {gsave} def
/Q {grestore} def

/n {newpath} def
/m {moveto} def
/l {lineto} def
/c {curveto} def
/h {closepath} def

/re {4 -2 roll moveto
     dup 0 exch rlineto exch 0 rlineto
     neg 0 exch rlineto closepath} def

/f {fill} def
/f* {eofill} def
/F {gsave vg&FC fill grestore} def
/F* {gsave vg&FC eofill grestore} def

/s {closepath stroke} def
/S {stroke} def

/b {closepath gsave vg&FC fill grestore
    gsave stroke grestore newpath} def
/B {gsave vg&FC fill grestore gsave stroke grestore newpath} def
/b* {closepath gsave vg&FC eofill grestore
    gsave stroke grestore newpath} def
/B* {gsave vg&FC eofill grestore gsave stroke grestore newpath} def

/g {1 array astore /vg&fcolor exch def} def
/G {setgray} def
/k {4 array astore /vg&fcolor exch def} def
/K {setcmykcolor} def
/rg {3 array astore /vg&fcolor exch def} def
/RG {setrgbcolor} def

% Initialize the fill color.
0 0 0 rg

/vg&FC {mark vg&fcolor aload pop
        counttomark 1 eq {G} if
        counttomark 3 eq {RG} if
        counttomark 4 eq {K} if
        cleartomark } def

/vg&DFC {/vg&fcolor exch def} def

/vg&C {mark exch aload pop
       counttomark 1 eq {G} if
       counttomark 3 eq {RG} if
       counttomark 4 eq {K} if
       cleartomark } def

/w {setlinewidth} def
/j {setlinejoin} def
/J {setlinecap} def
/M {setmiterlimit} def
/d {setdash} def
/i {setflat} def

/W {clip} def
/W* {eoclip} def

% Setup the default graphics state.
% (black; 1 pt. linewidth; miter join; butt-ends; solid)
/defaultGraphicsState {0 g 1 w 0 j 0 J [] 0 d} def

% Emulation of the rectangle operators for PostScript implementations
% which do not implement all Level 2 features.  This is an INCOMPLETE
% emulation; only the "x y width height rect..." form is emulated.
/*rf {gsave newpath re fill grestore} def
/*rs {gsave newpath re stroke grestore} def
/*rc {newpath re clip} def
/rf  /rectfill where {pop /rectfill}{/*rf} ifelse load def
/rs  /rectstroke where {pop /rectstroke}{/*rs} ifelse load def
/rc  /rectclip where {pop /rectclip}{/*rc} ifelse load def

% Emulation of the selectfont operator.  This includes a 20% increase in
% the fontsize which is necessary to get sizes similar to the Java fonts.
/*sf {exch findfont exch
      dup type /arraytype eq {makefont}{scalefont} ifelse setfont} bind def
/sf /selectfont where {pop {1.2 mul selectfont}}{{1.2 mul *sf}} ifelse def

% Special version of stroke which allows the dash pattern to continue
% across path segments.  (This may be needed for PostScript although
% modern printers seem to do this correctly.)
/vg&stroke {
  currentdash pop length 0 eq
  {stroke}
  {
    currentdash /vg&doffset exch def pop
    flattenpath
    {m vg&resetdash}
    {2 copy
     currentpoint
     3 -1 roll sub dup mul
     3 1 roll sub dup mul
     add sqrt
     3 1 roll l
     currentdash 3 -1 roll add setdash}
     {}
     {h vg&resetdash}
     pathforall
     stroke
     vg&resetdash
  } ifelse
} def
/vg&resetdash {currentdash pop vg&doffset setdash} def

% Initialize variables for safety.
/delta 0 def
/xv 0 def  /yv 0 def  /width 0 def  /height 0 def

% Initialize to portrait INTERNATIONAL (Letter-height, A4-width) page.
/pw 595 def  /ph 791  def  /po true def /ftp false def

% Initialize margins to 20 points.
/ml 20 def  /mr 20 def  /mt 20 def  /mb 20 def

% Temporary matrices.
/smatrix 0 def  /nmatrix 0 def

% set page size (usage: <page width><page height> setpagesize)
/setpagesize {/ph exch def /pw exch def} def

% set page orientation (usage: portrait or landscape)
/portrait {/po true def} def
/landscape {/po false def} def

% force natural size for image (usage: naturalsize)
/naturalsize {/ftp false def} def

% resize image to fill page (usage: fittopage)
/fittopage {/ftp true def} def

% set margins of the page (usage: <left><bottom><top><right> setmargins)
/setmargins {/mr exch def /mt exch def /mb exch def /ml exch def} def

% set the graphic's size (usage: <width><height> setsize)
/setsize {/gh exch def /gw exch def} def

% set the graphic's origin (usage: <x0><y0> setorigin)
/setorigin {/gy exch def /gx exch def} def

% calculate image center
/imagecenter {pw ml sub mr sub 2 div ml add
              ph mt sub mb sub 2 div mb add} def

% calculate the necessary scaling
/imagescale {po {gw}{gh} ifelse pw ml sub mr sub div
             po {gh}{gw} ifelse ph mt sub mb sub div
             2 copy lt {exch} if pop
             ftp not {1 2 copy lt {exch} if pop} if
             1 exch div /sfactor exch def
             /gw gw sfactor mul def /gh gh sfactor mul def} def

% calculate image origin
/imageorigin {pw ml sub mr sub 2 div ml add
              po {gw}{gh} ifelse 2 div sub
              ph mt sub mb sub 2 div mb add
              po {gh}{gw} ifelse 2 div po {add}{sub} ifelse} def

% calculate the clipping origin
/cliporigin  {pw ml sub mr sub 2 div ml add
              po {gw}{gh} ifelse 2 div sub floor
              ph mt sub mb sub 2 div mb add
              po {gh}{gw} ifelse 2 div sub floor} def

% Set the clipping region to the bounding box.
/cliptobounds {cliporigin po {gw}{gh} ifelse 1 add
                          po {gh}{gw} ifelse 1 add rc} def

% set the base transformation matrix (usage: setbasematrix)
/setbasematrix {imageorigin translate
                po {0}{90} ifelse rotate
                sfactor sfactor neg scale
                /defaultmatrix matrix currentmatrix def} def

% The lower-right bias in drawing 1 pt. wide lines.
/bias  {q 0.5 0.5 translate} def
/unbias {Q} def

% Define the composite fonts used to print Unicode strings.
% Undefine particular values in an encoding array.
/vg&undef { {exch dup 3 -1 roll /.notdef put} forall } def
/vg&redef { {3 -1 roll dup 4 2 roll put} forall } def

% usage: key encoding basefontname vg&newbasefont font
/vg&newbasefont {
findfont dup length dict copy
  begin
    currentdict /FID undef
    /Encoding exch def
    dup /FontName exch def
    currentdict
  end
definefont
} def

% usage: key encoding basefontname vg&newskewedbasefont font
/vg&newskewedbasefont {
findfont dup length dict copy
  begin
    currentdict /FID undef
    /Encoding exch def
    dup /FontName exch def
    exch FontMatrix exch matrix concatmatrix /FontMatrix exch def
    currentdict
  end
definefont
} def

% usage: basekey suffix vg&nconcat name
/vg&nconcat {
  2 {dup length string cvs exch} repeat
  dup length 3 -1 roll dup length 3 -1 roll add string
  dup 0 4 -1 roll dup length 5 1 roll putinterval
  dup 4 -2 roll exch putinterval cvn
} def

%usage: fontname vg&skewmatrix matrix
/vg&skewmatrix {
findfont dup /FontInfo known
  {
    /FontInfo get dup /ItalicAngle known
    {
      [ 1 0 4 -1 roll /ItalicAngle get neg dup sin exch cos div 1 0 0 ]
    }
    {pop matrix} ifelse
  }
  {pop matrix} ifelse
} def

% usage: newfontname basefontname vg&newcompositefont --
/vg&newcompositefont {
/vg&fstyle exch def
/vg&bfont exch def
/vg&fname exch def
<<
/FontStyleBits vg&fstyle
/FontType 0
/FontMatrix matrix
/FontName vg&fname
/FMapType 2
/Encoding [ 0 1 255 {pop 6} for ]
          dup 16#00 0 put % Latin
          dup 16#03 1 put % Greek
          dup 16#20 2 put % Punctuation
          dup 16#21 3 put % Arrows
          dup 16#22 4 put % MathOps
          dup 16#27 5 put % Dingbats

/FDepVector [
vg&bfont /-UC-Latin vg&nconcat UCLatinEncoding
vg&bfont vg&newbasefont

vg&bfont vg&skewmatrix
vg&bfont /-UC-Greek vg&nconcat UCGreekEncoding
/Symbol vg&newskewedbasefont

vg&bfont /-UC-Punctuation vg&nconcat UCPunctuationEncoding
vg&bfont vg&newbasefont

/Arrows-UC findfont
/MathOps-UC findfont
/Dingbats-UC findfont
/Undefined-UC findfont ]
>>
vg&fname exch definefont pop
} def

% Null encoding vector (all elements set to .notdef)
/NullEncoding [ 256 {/.notdef} repeat ] def

% Unicode Latin encoding (unicode codes \u0000-\u00ff)
/UCLatinEncoding
  ISOLatin1Encoding dup length array copy
  dup 16#60 /grave put
  [ 16#90 16#91 16#92 16#93 16#94 16#95 16#96
    16#97 16#98 16#9a 16#9b 16#9d 16#9e 16#9f
  ] vg&undef
  def

% Unicode Greek encoding (unicode codes \u0370-\u03ff)
/UCGreekEncoding
  NullEncoding dup length array copy
  << 16#91 /Alpha    16#92 /Beta      16#93 /Gamma    16#94 /Delta
     16#95 /Epsilon  16#96 /Zeta      16#97 /Eta      16#98 /Theta
     16#99 /Iota     16#9a /Kappa     16#9b /Lambda   16#9c /Mu
     16#9d /Nu       16#9e /Xi        16#9f /Omicron  16#a0 /Pi
     16#a1 /Rho      16#a3 /Sigma     16#a4 /Tau      16#a5 /Upsilon
     16#a6 /Phi      16#a7 /Chi       16#a8 /Psi      16#a9 /Omega
     16#b1 /alpha    16#b2 /beta      16#b3 /gamma    16#b4 /delta
     16#b5 /epsilon  16#b6 /zeta      16#b7 /eta      16#b8 /theta
     16#b9 /iota     16#ba /kappa     16#bb /lambda   16#bc /mu
     16#bd /nu       16#be /xi        16#bf /omicron  16#c0 /pi
     16#c1 /rho      16#c2 /sigma1    16#c3 /sigma    16#c4 /tau
     16#c5 /upsilon  16#c6 /phi1      16#c7 /chi      16#c8 /psi
     16#c9 /omega    16#7e /semicolon 16#87 /dotmath  16#d1 /theta1
     16#d2 /Upsilon1 16#d5 /phi       16#d6 /omega1
  >> vg&redef
  def

% Unicode punctuation encoding (unicode codes \u2000-\u206f)
/UCPunctuationEncoding
  NullEncoding dup length array copy
  << 16#10 /hyphen          16#11 /hyphen              16#12 /endash
     16#13 /emdash          16#18 /quoteleft           16#19 /quoteright
     16#1a /quotesinglbase  16#1b /quotesingle         16#1c /quotedblleft
     16#1d /quotedblright   16#1e /quotedblbase        16#1f /quotedbl
     16#20 /dagger          16#21 /daggerdbl           16#22 /bullet
     16#24 /period          16#26 /ellipsis            16#27 /periodcentered
     16#30 /perthousand     16#44 /fraction
     16#70 /zerosuperior    16#74 /foursuperior        16#75 /fivesuperior
     16#76 /sixsuperior     16#77 /sevensuperior       16#78 /eightsuperior
     16#79 /ninesuperior    16#7b /hyphensuperior      16#7d /parenleftsuperior
     16#7e /parenrightsuperior
     16#80 /zeroinferior    16#84 /fourinferior        16#85 /fiveinferior
     16#81 /oneinferior     16#82 /twoinferior         16#83 /threeinferior
     16#86 /sixinferior     16#87 /seveninferior       16#88 /eightinferior
     16#89 /nineinferior    16#8b /hypheninferior      16#8d /parenleftinferior
     16#8e /parenrightinferior
  >> vg&redef
  def

% Unicode mathematical operators encoding (unicode codes \u2200-\u22ff)
/UCMathOpsEncoding
  NullEncoding dup length array copy
  << 16#00 /universal       16#02 /partialdiff         16#03 /existential
     16#05 /emptyset        16#06 /Delta               16#07 /gradient
     16#08 /element         16#09 /notelement          16#0b /suchthat
     16#0f /product         16#11 /summation           16#12 /minus
     16#15 /fraction        16#17 /asteriskmath        16#19 /bullet
     16#1a /radical         16#1d /proportional        16#1e /infinity
     16#20 /angle           16#23 /bar                 16#27 /logicaland
     16#28 /logicalor       16#29 /intersection        16#2a /union
     16#2b /integral        16#34 /therefore           16#36 /colon
     16#3c /similar         16#45 /congruent           16#48 /approxequal
     16#60 /notequal        16#61 /equivalence         16#64 /lessequal
     16#65 /greaterequal    16#82 /propersubset        16#83 /propersuperset
     16#86 /reflexsubset    16#87 /reflexsuperset      16#95 /circleplus
     16#97 /circlemultiply  16#a5 /perpendicular       16#03 /existential
     16#c0 /logicaland      16#c1 /logicalor           16#c2 /intersection
     16#c3 /union           16#c4 /diamond             16#c5 /dotmath
  >> vg&redef
  def

% Unicode arrows encoding (unicode codes \u2190-\u21ff)
% Also includes those "Letterlike" unicode characters
% which are available in the symbol font. (unicode codes \u2100-\u214f)
/UCArrowsEncoding
  NullEncoding dup length array copy
  << 16#11 /Ifraktur        16#1c /Rfraktur            16#22 /trademarkserif
     16#35 /aleph
     16#90 /arrowleft       16#91 /arrowup             16#92 /arrowright
     16#93 /arrowdown       16#94 /arrowboth           16#d0 /arrowdblleft
     16#d1 /arrowdblup      16#d2 /arrowdblright       16#d3 /arrowdbldown
     16#d4 /arrowdblboth
  >> vg&redef
  def

/ZapfDingbats findfont /Encoding get
dup length array copy /UCDingbatsEncoding exch def
16#20 1 16#7f {
  dup 16#20 sub exch
  UCDingbatsEncoding exch get
  UCDingbatsEncoding 3 1 roll put
} for
16#a0 1 16#ff {
  dup 16#40 sub exch
  UCDingbatsEncoding exch get
  UCDingbatsEncoding 3 1 roll put
} for
UCDingbatsEncoding [ 16#c0 1 16#ff {} for ] vg&undef
[ 16#00  16#05 16#0a 16#0b  16#28 16#4c 16#4e  16#53 16#54 16#55  16#57 16#5f
  16#60  16#68 16#69 16#6a  16#6b 16#6c 16#6d  16#6e 16#6f 16#70  16#71 16#72
  16#73  16#74 16#75 16#95  16#96 16#97 16#b0  16#bf
] vg&undef pop

% Define the base fonts which don't change.
/Undefined-UC NullEncoding       /Helvetica    vg&newbasefont pop
/MathOps-UC   UCMathOpsEncoding  /Symbol       vg&newbasefont pop
/Arrows-UC    UCArrowsEncoding   /Symbol       vg&newbasefont pop
/Dingbats-UC  UCDingbatsEncoding /ZapfDingbats vg&newbasefont pop

% Make the SansSerif composite fonts.
/SansSerif /Helvetica 16#00 vg&newcompositefont
/SansSerif-Bold /Helvetica-Bold 16#01 vg&newcompositefont
/SansSerif-Italic /Helvetica-Oblique 16#02 vg&newcompositefont
/SansSerif-BoldItalic /Helvetica-BoldOblique 16#03 vg&newcompositefont

% Make the Serif composite fonts.
/Serif /Times-Roman 16#00 vg&newcompositefont
/Serif-Bold /Times-Bold 16#01 vg&newcompositefont
/Serif-Italic /Times-Italic 16#02 vg&newcompositefont
/Serif-BoldItalic /Times-BoldItalic 16#03 vg&newcompositefont

% Make the Monospaced composite fonts.
/Monospaced /Courier 16#00 vg&newcompositefont
/Monospaced-Bold /Courier-Bold 16#01 vg&newcompositefont
/Monospaced-Italic /Courier-Oblique 16#02 vg&newcompositefont
/Monospaced-BoldItalic /Courier-BoldOblique 16#03 vg&newcompositefont

% Make the Dialog composite fonts.
/Dialog /Helvetica 16#00 vg&newcompositefont
/Dialog-Bold /Helvetica-Bold 16#01 vg&newcompositefont
/Dialog-Italic /Helvetica-Oblique 16#02 vg&newcompositefont
/Dialog-BoldItalic /Helvetica-BoldOblique 16#03 vg&newcompositefont

% Make the DialogInput composite fonts.
/DialogInput /Courier 16#00 vg&newcompositefont
/DialogInput-Bold /Courier-Bold 16#01 vg&newcompositefont
/DialogInput-Italic /Courier-Oblique 16#02 vg&newcompositefont
/DialogInput-BoldItalic /Courier-BoldOblique 16#03 vg&newcompositefont

% Make the Typewriter composite fonts (JDK 1.1 only).
/Typewriter /Courier 16#00 vg&newcompositefont
/Typewriter-Bold /Courier-Bold 16#01 vg&newcompositefont
/Typewriter-Italic /Courier-Oblique 16#02 vg&newcompositefont
/Typewriter-BoldItalic /Courier-BoldOblique 16#03 vg&newcompositefont


/cfontH {
 dup /fontsize exch def /SansSerif exch sf
 /vg&fontstyles [{cfontH} {cfontHB} {cfontHI} {cfontHBI}] def
} def
/cfontHB {
  dup /fontsize exch def /SansSerif-Bold exch sf
 /vg&fontstyles [{cfontH} {cfontHB} {cfontHI} {cfontHBI}] def
} def
/cfontHI {
 dup /fontsize exch def /SansSerif-Italic exch sf
 /vg&fontstyles [{cfontH} {cfontHB} {cfontHI} {cfontHBI}] def
} def
/cfontHBI {
 dup /fontsize exch def /SansSerif-BoldItalic exch sf
 /vg&fontstyles [{cfontH} {cfontHB} {cfontHI} {cfontHBI}] def
} def

/cfontT {
 dup /fontsize exch def /Serif exch sf
 /vg&fontstyles [{cfontT} {cfontTB} {cfontTI} {cfontTBI}] def
} def
/cfontTB {
 dup /fontsize exch def /Serif-Bold exch sf
 /vg&fontstyles [{cfontT} {cfontTB} {cfontTI} {cfontTBI}] def
} def
/cfontTI {
 dup /fontsize exch def /Serif-Italic exch sf
 /vg&fontstyles [{cfontT} {cfontTB} {cfontTI} {cfontTBI}] def
} def
/cfontTBI {
 dup /fontsize exch def /Serif-BoldItalic exch sf
 /vg&fontstyles [{cfontT} {cfontTB} {cfontTI} {cfontTBI}] def
} def

/cfontC {
 dup /fontsize exch def /Typewriter exch sf
 /vg&fontstyles [{cfontC} {cfontCB} {cfontCI} {cfontCBI}] def
} def
/cfontCB {
 dup /fontsize exch def /Typewriter-Bold exch sf
 /vg&fontstyles [{cfontC} {cfontCB} {cfontCI} {cfontCBI}] def
} def
/cfontCI {
 dup /fontsize exch def /Typewriter-Italic exch sf
 /vg&fontstyles [{cfontC} {cfontCB} {cfontCI} {cfontCBI}] def
} def
/cfontCBI {
 dup /fontsize exch def /Typewriter-BoldItalic exch sf
 /vg&fontstyles [{cfontC} {cfontCB} {cfontCI} {cfontCBI}] def
} def

% Darken or lighten the current color.
/darken {0.7 exch exp 3 copy
         q 4 -1 roll vg&C
         currentrgbcolor 3 {4 -2 roll mul} repeat
         3 array astore Q} def

/displayColorMap
<< /Cr   [1.00 0.00 0.00]       /Cg     [0.00 1.00 0.00]
   /Cb   [0.00 0.00 1.00]       /Cc     [1.00 0.00 0.00 0.00]
   /Cm   [0.00 1.00 0.00 0.00]  /Cy     [0.00 0.00 1.00 0.00]
   /Co   [1.00 0.78 0.00]       /Cp     [1.00 0.67 0.67]
   /Cw   [1   ]                 /Cgrl   [0.75]
   /Cgr  [0.50]                 /Cgrd   [0.25]
   /Ck   [0   ]
   /CGr  [1.00 0.00 0.00]       /CGg    [0.00 1.00 0.00]
   /CGb  [0.00 0.00 1.00]       /CGc    [1.00 0.00 0.00 0.00]
   /CGm  [0.00 1.00 0.00 0.00]  /CGy    [0.00 0.00 1.00 0.00]
   /CGo  [1.00 0.78 0.00]       /CGp    [1.00 0.67 0.67]
   /CGw  [1   ]                 /CGgrl  [0.75]
   /CGgr [0.50]                 /CGgrd  [0.25]
   /CGk  [0   ]
   /CIr  [1.00 0.00 0.00]       /CIg    [0.00 1.00 0.00]
   /CIb  [0.00 0.00 1.00]       /CIc    [1.00 0.00 0.00 0.00]
   /CIm  [0.00 1.00 0.00 0.00]  /CIy    [0.00 0.00 1.00 0.00]
   /CIo  [1.00 0.78 0.00]       /CIp    [1.00 0.67 0.67]
   /CIw  [1   ]                 /CIgrl  [0.75]
   /CIgr [0.50]                 /CIgrd  [0.25]
   /CIk  [0   ]
>> def

/printColorMap
<< /Cr   [1.00 0.33 0.33]       /Cg     [0.33 1.00 0.33]
   /Cb   [0.33 0.33 1.00]       /Cc     [1.00 0.00 0.00 0.00]
   /Cm   [0.00 1.00 0.00 0.00]  /Cy     [0.00 0.00 1.00 0.00]
   /Co   [1.00 0.78 0.00]       /Cp     [1.00 0.67 0.67]
   /Cw   [1   ]                 /Cgrl   [0.75]
   /Cgr  [0.50]                 /Cgrd   [0.25]
   /Ck   [0   ]
   /CGr  [1.00 0.33 0.33]       /CGg    [0.33 1.00 0.33]
   /CGb  [0.33 0.33 1.00]       /CGc    [1.00 0.00 0.00 0.00]
   /CGm  [0.00 1.00 0.00 0.00]  /CGy    [0.00 0.00 1.00 0.00]
   /CGo  [1.00 0.78 0.00]       /CGp    [1.00 0.67 0.67]
   /CGw  [1   ]                 /CGgrl  [0.75]
   /CGgr [0.50]                 /CGgrd  [0.25]
   /CGk  [0   ]
   /CIr  [1.00 0.33 0.33]       /CIg    [0.33 1.00 0.33]
   /CIb  [0.33 0.33 1.00]       /CIc    [1.00 0.00 0.00 0.00]
   /CIm  [0.00 1.00 0.00 0.00]  /CIy    [0.00 0.00 1.00 0.00]
   /CIo  [1.00 0.78 0.00]       /CIp    [1.00 0.67 0.67]
   /CIw  [1   ]                 /CIgrl  [0.75]
   /CIgr [0.50]                 /CIgrd  [0.25]
   /CIk  [0   ]
>> def

/grayColorMap
<< /Cr   [0   ]                 /Cg     [0   ]
   /Cb   [0   ]                 /Cc     [0   ]
   /Cm   [0   ]                 /Cy     [0   ]
   /Co   [0   ]                 /Cp     [0   ]
   /Cw   [0   ]                 /Cgrl   [0   ]
   /Cgr  [0   ]                 /Cgrd   [0   ]
   /Ck   [0   ]
   /CGr  [0.75]                 /CGg    [1   ]
   /CGb  [0.50]                 /CGc    [0.75]
   /CGm  [0.50]                 /CGy    [1   ]
   /CGo  [0.75]                 /CGp    [1   ]
   /CGw  [0   ]                 /CGgrl  [0.25]
   /CGgr [0.50]                 /CGgrd  [0.75]
   /CGk  [1   ]
   /CIr  [1   ]                 /CIg    [1   ]
   /CIb  [1   ]                 /CIc    [1   ]
   /CIm  [1   ]                 /CIy    [1   ]
   /CIo  [1   ]                 /CIp    [1   ]
   /CIw  [1   ]                 /CIgrl  [1   ]
   /CIgr [1   ]                 /CIgrd  [1   ]
   /CIk  [1   ]
>> def

/bwColorMap
<< /Cr   [0   ]                 /Cg     [0   ]
   /Cb   [0   ]                 /Cc     [0   ]
   /Cm   [0   ]                 /Cy     [0   ]
   /Co   [0   ]                 /Cp     [0   ]
   /Cw   [0   ]                 /Cgrl   [0   ]
   /Cgr  [0   ]                 /Cgrd   [0   ]
   /Ck   [0   ]
   /CGr  [1   ]                 /CGg    [1   ]
   /CGb  [1   ]                 /CGc    [1   ]
   /CGm  [1   ]                 /CGy    [1   ]
   /CGo  [1   ]                 /CGp    [1   ]
   /CGw  [0   ]                 /CGgrl  [1   ]
   /CGgr [1   ]                 /CGgrd  [1   ]
   /CGk  [1   ]
   /CIr  [1   ]                 /CIg    [1   ]
   /CIb  [1   ]                 /CIc    [1   ]
   /CIm  [1   ]                 /CIy    [1   ]
   /CIo  [1   ]                 /CIp    [1   ]
   /CIw  [1   ]                 /CIgrl  [1   ]
   /CIgr [1   ]                 /CIgrd  [1   ]
   /CIk  [1   ]
>> def

%
% The following routines handle the alignment of and printing of
% tagged strings.
%

% Predefine the bounding box values.
/bbllx 0 def /bblly 0 def /bburx 0 def /bbury 0 def

% This routine pops the first unicode character off of a string and returns
% the remainder of the string, the character code of first character,
% and a "true" if the string was non-zero length.
% <string>      popfirst <remaining string> <true>
% <null string> popfirst <false>
/popfirst {
  dup length 1 gt
    {dup 0 get /vg&fbyte exch def
     dup 1 get /vg&cbyte exch def
     dup length 2 sub 2 exch getinterval true}
    {pop false} ifelse
} def

% This routine shows a single unicode character given the font and
% character codes.
% <font code> <char code> unicharshow --
/unicharshow {
  2 string
  dup 0 5 -1 roll put
  dup 1 4 -1 roll put
  internalshow
} def

% This is an internal routine to alternate between determining the
% bounding box for stringsize and showing the string for recshow.
% <string> internalshow --
/internalshow {show} def

% This is an internal routine to alternate between determining the
% bounding box for stringsize and stroking various ornaments.
% <string> internalstroke --
/internalstroke {S} def

% Sets up internalshow to use the null device to determine string size.
% -- nullinternalshow --
/nullinternalshow {/internalshow {false charpath flattenpath
                                  pathbbox updatebbox} def} def

% Sets up internalstroke to use the null device to determine string size.
% -- nullinternalstroke --
/nullinternalstroke {
 /internalstroke {flattenpath pathbbox updatebbox} def} def

% This routine tests to see if the character code matches the first
% character of a string.
% <char code> <string> testchar <char code> <true or false>
/testchar {exch dup 3 -1 roll 0 get eq} def

% Raise the text baseline for superscripts.
% -- raise --
/raise {
  0 fontsize 2 div rmoveto
  /fontsize fontsize 2 mul 3 div def
  currentfont /FontName get fontsize sf
} def

% Un-raise the text baseline for superscripts.
% -- unraise --
/unraise {
  /fontsize fontsize 1.5 mul def
  0 fontsize 2 div neg rmoveto
} def

% Lower the text baseline for subscripts.
% -- lower --
/lower {
  0 fontsize 3 div neg rmoveto
  /fontsize fontsize 2 mul 3 div def
  currentfont /FontName get fontsize sf
} def

% Un-lower the text baseline for subscripts.
% -- unlower --
/unlower {
  /fontsize fontsize 1.5 mul def
  0 fontsize 3 div rmoveto
} def

% Compare the top two elements on the stack and leave only the
% larger one.
/maxval {2 copy gt {pop} {exch pop} ifelse} def

% Tokenize a string.  Do not use the usual PostScript token because
% parentheses will not be interpreted correctly because of rescanning
% of the string.
/vg&token {/vg&string exch def /vg&index -1 def /vg&level 0 def
0 2 vg&string length 2 sub {
  dup dup 1 add exch vg&string exch get 8 bitshift vg&string 3 -1 roll get or
  dup 16#f0fe eq {pop 1}{16#f0ff eq {-1}{0} ifelse} ifelse
  /vg&level exch vg&level add def
  vg&level 0 eq {/vg&index exch def exit} if pop
} for
vg&index 0 ge {
  vg&string vg&index 2 add dup vg&string length exch sub getinterval
  vg&index 2 gt {vg&string 2 vg&index 2 sub getinterval}{()} ifelse
  true}
{false} ifelse
} bind def

% Recursively show an unicode string.
% <string> recshow --
/recshow {
  popfirst
  {
    % Test to see if this is a string attribute.
    vg&fbyte 16#f0 and 16#e0 eq
    {
      q

      % Font style.
      currentfont dup /FontStyleBits known {/FontStyleBits get}{pop 0} ifelse
      vg&cbyte or vg&fontstyles exch get fontsize exch exec

      vg&token pop recshow currentpoint Q m recshow
    }
    {
      vg&fbyte 16#F8 and 16#F0 eq {

        % Superscript and/or subscript.
        vg&cbyte 16#00 eq {
          vg&token pop exch vg&token pop 3 -1 roll
          q raise recshow unraise currentpoint pop Q exch
          q lower recshow unlower currentpoint pop Q
          maxval currentpoint exch pop m recshow } if

        % Strikeout.
        vg&cbyte 16#01 eq {
          vg&token pop currentpoint 3 -1 roll recshow
          q 0 J vg&underline vg&uthick w
          currentpoint 4 -2 roll fontsize 3 div add moveto
          fontsize 3 div add lineto internalstroke Q
          recshow} if

        % Underline.
        vg&cbyte 16#02 eq {
          vg&token pop currentpoint 3 -1 roll recshow
          q 0 J vg&underline vg&uthick w
          currentpoint 4 -2 roll vg&uoffset add moveto
          vg&uoffset add lineto internalstroke Q
          recshow} if

        % Dashed underline.
        vg&cbyte 16#03 eq {
          vg&token pop currentpoint 3 -1 roll recshow
          q 0 J [ vg&uthick 5 mul vg&uthick 2 mul] 0 d
          vg&underline vg&uthick w
          currentpoint 4 -2 roll vg&uoffset add moveto
          vg&uoffset add lineto internalstroke Q
          recshow} if

        % Dotted underline.
        vg&cbyte 16#04 eq {
          vg&token pop currentpoint 3 -1 roll recshow
          q 1 J [ 0 vg&uthick 3 mul] 0 d
          vg&underline vg&uthick w
          currentpoint 4 -2 roll vg&uoffset add moveto
          vg&uoffset add lineto internalstroke Q
          recshow} if

        % Thick underline.
        vg&cbyte 16#05 eq {
          vg&token pop currentpoint 3 -1 roll recshow
          q 0 J vg&underline vg&uthick 2 mul w
          currentpoint 4 -2 roll vg&uoffset vg&uthick 2 div sub add moveto
          vg&uoffset vg&uthick 2 div sub add lineto internalstroke Q
          recshow} if

        % Gray thick underline.
        vg&cbyte 16#06 eq {
          vg&token pop currentpoint 3 -1 roll recshow
          q 0 J vg&underline vg&uthick 2 mul w 0.5 setgray
          currentpoint 4 -2 roll vg&uoffset vg&uthick 2 div sub add moveto
          vg&uoffset vg&uthick 2 div sub add lineto internalstroke Q
          recshow} if

        % Overbar.
        vg&cbyte 16#07 eq {
          vg&token pop dup stringsize relative 4 1 roll pop pop exch
          3 -1 roll recshow
          q 0 J vg&underline vg&uthick w
          vg&uoffset neg add dup currentpoint pop exch m l internalstroke Q
          recshow} if
      }
      {
        vg&fbyte vg&cbyte unicharshow recshow
      } ifelse
    } ifelse
  } if
} def

% Get the underline position and thickness from the current font.
/vg&underline {

currentfont dup /FontType get 0 eq {/FDepVector get 0 get} if
dup dup /FontInfo known {
  /FontInfo get dup
  dup /UnderlinePosition known {
    /UnderlinePosition get /vg&uoffset exch def
  }
  {
    pop /vg&uoffset 0 def
  } ifelse
  dup /UnderlineThickness known {
    /UnderlineThickness get /vg&uthick exch def
  }
  {
    pop /vg&uthick 0 def
  } ifelse
}
{
  pop /vg&uoffset 0 def /vg&uthick 0 def
} ifelse
/FontMatrix get
currentfont dup /FontType get 0 eq
{/FontMatrix get matrix concatmatrix}{pop} ifelse
dup 0 vg&uoffset 3 -1 roll transform /vg&uoffset exch def pop
0 vg&uthick 3 -1 roll transform /vg&uthick exch def pop
} def

% Make a frame with the coordinates on the stack.
% <llx> <lly> <urx> <ury> frame --
/frame {4 copy m 3 1 roll exch l 4 -2 roll l l h} def

% Resets the accumulated bounding box to a degenerate box at the
% current point.
% -- resetbbox --
/resetbbox {
  currentpoint 2 copy
  /bbury exch def
  /bburx exch def
  /bblly exch def
  /bbllx exch def
} def

% Update the accumulated bounding box.
% <llx'> <lly'> <urx'> <ury'> updatebbox --
/updatebbox {
  dup bbury gt {/bbury exch def} {pop} ifelse
  dup bburx gt {/bburx exch def} {pop} ifelse
  dup bblly lt {/bblly exch def} {pop} ifelse
  dup bbllx lt {/bbllx exch def} {pop} ifelse
} def

% Set the bounding box to the values on the stack.
% <llx'> <lly'> <urx'> <ury'> updatebbox --
/restorebbox {
  /bbury exch def /bburx exch def /bblly exch def /bbllx exch def
} def

% Push the accumulated bounding box onto the stack.
% -- pushbbox <llx> <lly> <urx> <ury>
/pushbbox {bbllx bblly bburx bbury} def

% Make the relative bounding box relative to the currentpoint.
% <llx'> <lly'> <urx'> <ury'> inflate <llx> <lly> <urx> <ury>
/inflate {
  2 {fontsize 0.2 mul add 4 1 roll} repeat
  2 {fontsize 0.2 mul sub 4 1 roll} repeat
} def

% Make the relative bounding box relative to the currentpoint.
% <llx'> <lly'> <urx'> <ury'> relative <llx> <lly> <urx> <ury>
/relative {
  currentpoint 3 -1 roll add 3 1 roll add exch 4 2 roll
  currentpoint 3 -1 roll add 3 1 roll add exch 4 2 roll
} def

% Returns the size of a string appropriate for recshow.
% <string> stringsize <llx> <lly> <urx> <ury>
/stringsize {
  pushbbox /internalshow load /internalstroke load 7 -1 roll
  q
  nulldevice 0 0 m
  nullinternalshow nullinternalstroke
  resetbbox
  recshow
  /internalstroke exch def /internalshow exch def
  pushbbox 8 -4 roll restorebbox
  Q
} def

% Calculate values for string positioning.
/calcval {4 copy
  3 -1 roll sub /widy exch def sub neg /widx exch def
  pop pop /dy exch def /dx exch def} def

% Utilities to position a string.
% First letter (U=upper, C=center, B=baseline, L=lower)
% Second letter (L=left, C=center, R=right)
/align [
{calcval dx neg widy dy add neg rmoveto} % UL
{calcval dx neg widy 2 div dy add neg rmoveto} % CL
{calcval dx neg 0 rmoveto} % BL
{calcval dx neg dy neg rmoveto} % LL
{calcval widx dx add neg widy dy add neg rmoveto} % UR
{calcval widx dx add neg widy 2 div dy add neg rmoveto} % CR
{calcval widx dx add neg 0 rmoveto} % BR
{calcval widx dx add neg dy neg rmoveto} % LR
{calcval widx 2 div dx add neg widy dy add neg rmoveto} % UC
{calcval widx 2 div dx add neg widy 2 div dy add neg rmoveto} % CC
{calcval widx 2 div dx add neg 0 rmoveto} % BC
{calcval widx 2 div dx add neg dy neg rmoveto} % LC
] def

/vg&str {m q 1 -1 scale dup stringsize 4 copy align 11 -1 roll get exec
         q inflate relative frame exch exec Q recshow Q} def

end /procDict exch def
%%EndProlog

%%BeginSetup
save
procDict begin
printColorMap begin
120 311 setpagesize
0 0 0 0 setmargins
0 0 setorigin
120 311 setsize
naturalsize
portrait
imagescale
cliptobounds
setbasematrix
/Helvetica 10 sf
defaultGraphicsState
%%EndSetup

0.00000 0.00000 0.00000 RG
[ 1.00000 0.00000 0.00000 1.00000 0.00000 0.00000 ] defaultmatrix matrix concatmatrix setmatrix
cliprestore
1.00000 1.00000 1.00000 RG
newpath
0.00000 0.00000 m
120.000 0.00000 l
120.000 311.000 l
0.00000 311.000 l
0.00000 0.00000 l
h
f
0.00000 0.00000 0.00000 RG
0.00000 0.00000 0.00000 RG
[ 1.00000 0.00000 0.00000 1.00000 0.00000 0.00000 ] defaultmatrix matrix concatmatrix setmatrix
cliprestore
1.00000 1.00000 1.00000 RG
newpath
0.00000 0.00000 m
120.000 0.00000 l
120.000 311.000 l
0.00000 311.000 l
0.00000 0.00000 l
h
f
0.00000 0.00000 0.00000 RG
0 0 120 311 rc
q
[ .500000 0.00000 0.00000 .500000 0.00000 0.00000 ] concat
[ 1.00000 0.00000 0.00000 1.00000 16.0000 20.0000 ] concat
1.00000 1.00000 1.00000 RG
newpath
-16.0000 -20.0000 m
224.000 -20.0000 l
224.000 602.000 l
-16.0000 602.000 l
-16.0000 -20.0000 l
h
f
0.00000 0.00000 0.00000 RG
[ .500000 0.00000 0.00000 .500000 8.00000 10.0000 ] defaultmatrix matrix concatmatrix setmatrix
[ .500000 0.00000 0.00000 .500000 8.00000 10.0000 ] defaultmatrix matrix concatmatrix setmatrix
[ 1.00000 0.00000 0.00000 1.00000 0.00000 0.00000 ] defaultmatrix matrix concatmatrix setmatrix
[ .500000 0.00000 0.00000 .500000 8.00000 10.0000 ] defaultmatrix matrix concatmatrix setmatrix
q
<< /PatternType 2
   /Shading
   << /ShadingType 2
      /ColorSpace /DeviceRGB
      /Coords [4.833333492279053 0.0 204.8333282470703 40.0]
      /Function
      << /FunctionType 2
         /Domain [0 1]
         /Range [0 1 0 1 0 1]
         /C0 [0.9098039 0.93333334 0.96862745]
         /C1 [0.7176471 0.7882353 0.8901961]
         /N 1
      >>
      /Extend [true true]
   >>
>>
matrix makepattern setpattern
newpath
204.833 20.0000 m
204.833 31.0457 160.062 40.0000 104.833 40.0000  c
49.6049 40.0000 4.83333 31.0457 4.83333 20.0000  c
4.83333 8.95431 49.6049 0.00000 104.833 0.00000  c
160.062 0.00000 204.833 8.95431 204.833 20.0000  c
h
f
0 J
1.45000 M
0.00000 0.00000 0.00000 RG
newpath
204.833 20.0000 m
204.833 31.0457 160.062 40.0000 104.833 40.0000  c
49.6049 40.0000 4.83333 31.0457 4.83333 20.0000  c
4.83333 8.95431 49.6049 0.00000 104.833 0.00000  c
160.062 0.00000 204.833 8.95431 204.833 20.0000  c
h
S
2 J
10.0000 M
0 J
1.45000 M
newpath
83.0892 15.4043 m
84.2767 15.4043 l
84.2767 18.9980 l
88.5736 18.9980 l
88.5736 15.4043 l
89.7611 15.4043 l
89.7611 24.1543 l
88.5736 24.1543 l
88.5736 19.9824 l
84.2767 19.9824 l
84.2767 24.1543 l
83.0892 24.1543 l
83.0892 15.4043 l
h
95.0501 20.8574 m
94.1855 20.8574 93.5840 20.9564 93.2454 21.1543  c
92.9069 21.3522 92.7376 21.6908 92.7376 22.1699  c
92.7376 22.5553 92.8652 22.8600 93.1204 23.0840  c
93.3757 23.3079 93.7168 23.4199 94.1439 23.4199  c
94.7480 23.4199 95.2298 23.2090 95.5892 22.7871  c
95.9486 22.3652 96.1283 21.8001 96.1283 21.0918  c
96.1283 20.8574 l
95.0501 20.8574 l
h
97.2064 20.4043 m
97.2064 24.1543 l
96.1283 24.1543 l
96.1283 23.1543 l
95.8783 23.5501 95.5710 23.8444 95.2064 24.0371  c
94.8418 24.2298 94.3939 24.3262 93.8626 24.3262  c
93.1855 24.3262 92.6491 24.1361 92.2533 23.7559  c
91.8574 23.3757 91.6595 22.8730 91.6595 22.2480  c
91.6595 21.5085 91.9069 20.9512 92.4017 20.5762  c
92.8965 20.2012 93.6335 20.0137 94.6126 20.0137  c
96.1283 20.0137 l
96.1283 19.9043 l
96.1283 19.4043 95.9642 19.0189 95.6361 18.7480  c
95.3079 18.4772 94.8522 18.3418 94.2689 18.3418  c
93.8939 18.3418 93.5267 18.3887 93.1673 18.4824  c
92.8079 18.5762 92.4668 18.7116 92.1439 18.8887  c
92.1439 17.8887 l
92.5397 17.7324 92.9225 17.6178 93.2923 17.5449  c
93.6621 17.4720 94.0241 17.4355 94.3783 17.4355  c
95.3262 17.4355 96.0345 17.6803 96.5033 18.1699  c
96.9720 18.6595 97.2064 19.4043 97.2064 20.4043  c
h
103.216 24.1543 m
103.216 21.3887 l
101.201 21.3887 l
100.607 21.3887 100.112 21.2064 99.7161 20.8418  c
99.3516 20.4980 99.1693 19.9668 99.1693 19.2480  c
99.1693 17.5918 l
100.247 17.5918 l
100.247 19.1543 l
100.247 19.6126 100.352 19.9564 100.560 20.1855  c
100.768 20.4147 101.076 20.5293 101.482 20.5293  c
103.216 20.5293 l
103.216 17.5918 l
104.294 17.5918 l
104.294 24.1543 l
103.216 24.1543 l
h
109.493 20.8574 m
108.629 20.8574 108.027 20.9564 107.689 21.1543  c
107.350 21.3522 107.181 21.6908 107.181 22.1699  c
107.181 22.5553 107.309 22.8600 107.564 23.0840  c
107.819 23.3079 108.160 23.4199 108.587 23.4199  c
109.191 23.4199 109.673 23.2090 110.033 22.7871  c
110.392 22.3652 110.572 21.8001 110.572 21.0918  c
110.572 20.8574 l
109.493 20.8574 l
h
111.650 20.4043 m
111.650 24.1543 l
110.572 24.1543 l
110.572 23.1543 l
110.322 23.5501 110.014 23.8444 109.650 24.0371  c
109.285 24.2298 108.837 24.3262 108.306 24.3262  c
107.629 24.3262 107.092 24.1361 106.697 23.7559  c
106.301 23.3757 106.103 22.8730 106.103 22.2480  c
106.103 21.5085 106.350 20.9512 106.845 20.5762  c
107.340 20.2012 108.077 20.0137 109.056 20.0137  c
110.572 20.0137 l
110.572 19.9043 l
110.572 19.4043 110.408 19.0189 110.079 18.7480  c
109.751 18.4772 109.296 18.3418 108.712 18.3418  c
108.337 18.3418 107.970 18.3887 107.611 18.4824  c
107.251 18.5762 106.910 18.7116 106.587 18.8887  c
106.587 17.8887 l
106.983 17.7324 107.366 17.6178 107.736 17.5449  c
108.105 17.4720 108.467 17.4355 108.822 17.4355  c
109.770 17.4355 110.478 17.6803 110.947 18.1699  c
111.415 18.6595 111.650 19.4043 111.650 20.4043  c
h
113.191 24.1543 m
113.191 23.2637 l
113.899 23.1491 114.363 22.8470 114.581 22.3574  c
114.842 21.6595 114.972 20.4303 114.972 18.6699  c
114.972 17.5918 l
119.410 17.5918 l
119.410 24.1543 l
118.331 24.1543 l
118.331 18.4512 l
116.050 18.4512 l
116.050 19.1074 l
116.050 20.7949 115.878 22.0137 115.535 22.7637  c
115.170 23.5762 114.389 24.0397 113.191 24.1543  c
h
124.079 18.3418 m
123.507 18.3418 123.051 18.5684 122.712 19.0215  c
122.374 19.4746 122.204 20.0918 122.204 20.8730  c
122.204 21.6647 122.371 22.2845 122.704 22.7324  c
123.038 23.1803 123.496 23.4043 124.079 23.4043  c
124.652 23.4043 125.108 23.1777 125.447 22.7246  c
125.785 22.2715 125.954 21.6543 125.954 20.8730  c
125.954 20.1022 125.785 19.4876 125.447 19.0293  c
125.108 18.5710 124.652 18.3418 124.079 18.3418  c
h
124.079 17.4355 m
125.017 17.4355 125.754 17.7402 126.290 18.3496  c
126.827 18.9590 127.095 19.8001 127.095 20.8730  c
127.095 21.9460 126.827 22.7897 126.290 23.4043  c
125.754 24.0189 125.017 24.3262 124.079 24.3262  c
123.142 24.3262 122.405 24.0189 121.868 23.4043  c
121.332 22.7897 121.064 21.9460 121.064 20.8730  c
121.064 19.8001 121.332 18.9590 121.868 18.3496  c
122.405 17.7402 123.142 17.4355 124.079 17.4355  c
h
f
2 J
10.0000 M
Q
q
<< /PatternType 2
   /Shading
   << /ShadingType 2
      /ColorSpace /DeviceRGB
      /Coords [4.833333492279053 140.0 204.8333282470703 213.0]
      /Function
      << /FunctionType 2
         /Domain [0 1]
         /Range [0 1 0 1 0 1]
         /C0 [0.9098039 0.93333334 0.96862745]
         /C1 [0.7176471 0.7882353 0.8901961]
         /N 1
      >>
      /Extend [true true]
   >>
>>
matrix makepattern setpattern
newpath
4.83333 140.000 m
204.833 140.000 l
204.833 213.000 l
4.83333 213.000 l
h
f
0 J
1.45000 M
0.00000 0.00000 0.00000 RG
newpath
4.83333 140.000 m
204.833 140.000 l
204.833 213.000 l
4.83333 213.000 l
h
S
2 J
10.0000 M
0 J
1.45000 M
newpath
22.0941 175.092 m
21.9691 175.029 21.8363 174.980 21.6956 174.943  c
21.5550 174.907 21.3962 174.889 21.2191 174.889  c
20.6149 174.889 20.1488 175.087 19.8206 175.482  c
19.4925 175.878 19.3285 176.451 19.3285 177.201  c
19.3285 180.654 l
18.2503 180.654 l
18.2503 174.092 l
19.3285 174.092 l
19.3285 175.107 l
19.5576 174.712 19.8545 174.417 20.2191 174.225  c
20.5837 174.032 21.0264 173.936 21.5472 173.936  c
21.6201 173.936 21.7008 173.941 21.7894 173.951  c
21.8779 173.962 21.9743 173.977 22.0785 173.998  c
22.0941 175.092 l
h
25.7620 174.842 m
25.1891 174.842 24.7334 175.068 24.3949 175.521  c
24.0563 175.975 23.8870 176.592 23.8870 177.373  c
23.8870 178.165 24.0537 178.785 24.3870 179.232  c
24.7204 179.680 25.1787 179.904 25.7620 179.904  c
26.3350 179.904 26.7907 179.678 27.1292 179.225  c
27.4678 178.771 27.6370 178.154 27.6370 177.373  c
27.6370 176.602 27.4678 175.988 27.1292 175.529  c
26.7907 175.071 26.3350 174.842 25.7620 174.842  c
h
25.7620 173.936 m
26.6995 173.936 27.4365 174.240 27.9730 174.850  c
28.5094 175.459 28.7777 176.300 28.7777 177.373  c
28.7777 178.446 28.5094 179.290 27.9730 179.904  c
27.4365 180.519 26.6995 180.826 25.7620 180.826  c
24.8245 180.826 24.0876 180.519 23.5511 179.904  c
23.0146 179.290 22.7464 178.446 22.7464 177.373  c
22.7464 176.300 23.0146 175.459 23.5511 174.850  c
24.0876 174.240 24.8245 173.936 25.7620 173.936  c
h
29.9320 174.092 m
31.0101 174.092 l
32.3695 179.217 l
33.6976 174.092 l
34.9788 174.092 l
36.3226 179.217 l
37.6663 174.092 l
38.7445 174.092 l
37.0257 180.654 l
35.7601 180.654 l
34.3382 175.279 l
32.9320 180.654 l
31.6507 180.654 l
29.9320 174.092 l
h
43.6995 171.529 m
43.6995 172.436 l
42.6683 172.436 l
42.2829 172.436 42.0147 172.514 41.8636 172.670  c
41.7126 172.826 41.6370 173.107 41.6370 173.514  c
41.6370 174.092 l
43.4183 174.092 l
43.4183 174.936 l
41.6370 174.936 l
41.6370 180.654 l
40.5589 180.654 l
40.5589 174.936 l
39.5277 174.936 l
39.5277 174.092 l
40.5589 174.092 l
40.5589 173.639 l
40.5589 172.910 40.7282 172.376 41.0667 172.037  c
41.4053 171.699 41.9443 171.529 42.6839 171.529  c
43.6995 171.529 l
h
47.5804 177.357 m
46.7158 177.357 46.1143 177.456 45.7757 177.654  c
45.4372 177.852 45.2679 178.191 45.2679 178.670  c
45.2679 179.055 45.3955 179.360 45.6507 179.584  c
45.9059 179.808 46.2471 179.920 46.6742 179.920  c
47.2783 179.920 47.7601 179.709 48.1195 179.287  c
48.4788 178.865 48.6585 178.300 48.6585 177.592  c
48.6585 177.357 l
47.5804 177.357 l
h
49.7367 176.904 m
49.7367 180.654 l
48.6585 180.654 l
48.6585 179.654 l
48.4085 180.050 48.1012 180.344 47.7367 180.537  c
47.3721 180.730 46.9242 180.826 46.3929 180.826  c
45.7158 180.826 45.1794 180.636 44.7835 180.256  c
44.3877 179.876 44.1898 179.373 44.1898 178.748  c
44.1898 178.008 44.4372 177.451 44.9320 177.076  c
45.4268 176.701 46.1637 176.514 47.1429 176.514  c
48.6585 176.514 l
48.6585 176.404 l
48.6585 175.904 48.4945 175.519 48.1663 175.248  c
47.8382 174.977 47.3825 174.842 46.7992 174.842  c
46.4242 174.842 46.0570 174.889 45.6976 174.982  c
45.3382 175.076 44.9971 175.212 44.6742 175.389  c
44.6742 174.389 l
45.0700 174.232 45.4528 174.118 45.8226 174.045  c
46.1924 173.972 46.5544 173.936 46.9085 173.936  c
47.8564 173.936 48.5648 174.180 49.0335 174.670  c
49.5023 175.160 49.7367 175.904 49.7367 176.904  c
h
56.6839 174.342 m
56.6839 175.357 l
56.3714 175.180 56.0641 175.050 55.7620 174.967  c
55.4600 174.883 55.1527 174.842 54.8402 174.842  c
54.1318 174.842 53.5850 175.063 53.1995 175.506  c
52.8141 175.949 52.6214 176.571 52.6214 177.373  c
52.6214 178.175 52.8141 178.798 53.1995 179.240  c
53.5850 179.683 54.1318 179.904 54.8402 179.904  c
55.1527 179.904 55.4600 179.863 55.7620 179.779  c
56.0641 179.696 56.3714 179.571 56.6839 179.404  c
56.6839 180.404 l
56.3818 180.540 56.0693 180.644 55.7464 180.717  c
55.4235 180.790 55.0798 180.826 54.7152 180.826  c
53.7256 180.826 52.9391 180.516 52.3558 179.896  c
51.7725 179.277 51.4808 178.436 51.4808 177.373  c
51.4808 176.311 51.7751 175.472 52.3636 174.857  c
52.9522 174.243 53.7620 173.936 54.7933 173.936  c
55.1162 173.936 55.4365 173.969 55.7542 174.037  c
56.0719 174.105 56.3818 174.206 56.6839 174.342  c
h
59.6253 172.232 m
59.6253 174.092 l
61.8441 174.092 l
61.8441 174.936 l
59.6253 174.936 l
59.6253 178.498 l
59.6253 179.029 59.6982 179.370 59.8441 179.521  c
59.9899 179.673 60.2868 179.748 60.7347 179.748  c
61.8441 179.748 l
61.8441 180.654 l
60.7347 180.654 l
59.9014 180.654 59.3258 180.498 59.0081 180.186  c
58.6904 179.873 58.5316 179.311 58.5316 178.498  c
58.5316 174.936 l
57.7503 174.936 l
57.7503 174.092 l
58.5316 174.092 l
58.5316 172.232 l
59.6253 172.232 l
h
65.7992 174.842 m
65.2262 174.842 64.7705 175.068 64.4320 175.521  c
64.0934 175.975 63.9242 176.592 63.9242 177.373  c
63.9242 178.165 64.0908 178.785 64.4242 179.232  c
64.7575 179.680 65.2158 179.904 65.7992 179.904  c
66.3721 179.904 66.8278 179.678 67.1663 179.225  c
67.5049 178.771 67.6742 178.154 67.6742 177.373  c
67.6742 176.602 67.5049 175.988 67.1663 175.529  c
66.8278 175.071 66.3721 174.842 65.7992 174.842  c
h
65.7992 173.936 m
66.7367 173.936 67.4736 174.240 68.0101 174.850  c
68.5466 175.459 68.8148 176.300 68.8148 177.373  c
68.8148 178.446 68.5466 179.290 68.0101 179.904  c
67.4736 180.519 66.7367 180.826 65.7992 180.826  c
64.8617 180.826 64.1247 180.519 63.5882 179.904  c
63.0518 179.290 62.7835 178.446 62.7835 177.373  c
62.7835 176.300 63.0518 175.459 63.5882 174.850  c
64.1247 174.240 64.8617 173.936 65.7992 173.936  c
h
74.4066 175.092 m
74.2816 175.029 74.1488 174.980 74.0081 174.943  c
73.8675 174.907 73.7087 174.889 73.5316 174.889  c
72.9274 174.889 72.4613 175.087 72.1331 175.482  c
71.8050 175.878 71.6410 176.451 71.6410 177.201  c
71.6410 180.654 l
70.5628 180.654 l
70.5628 174.092 l
71.6410 174.092 l
71.6410 175.107 l
71.8701 174.712 72.1670 174.417 72.5316 174.225  c
72.8962 174.032 73.3389 173.936 73.8597 173.936  c
73.9326 173.936 74.0133 173.941 74.1019 173.951  c
74.1904 173.962 74.2868 173.977 74.3910 173.998  c
74.4066 175.092 l
h
75.4339 171.529 m
77.9183 171.529 l
77.9183 172.373 l
76.5120 172.373 l
76.5120 181.404 l
77.9183 181.404 l
77.9183 182.232 l
75.4339 182.232 l
75.4339 171.529 l
h
80.2093 174.092 m
81.2874 174.092 l
81.2874 180.654 l
80.2093 180.654 l
80.2093 174.092 l
h
80.2093 171.529 m
81.2874 171.529 l
81.2874 172.904 l
80.2093 172.904 l
80.2093 171.529 l
h
86.0745 171.529 m
86.0745 182.232 l
83.5902 182.232 l
83.5902 181.404 l
84.9808 181.404 l
84.9808 172.373 l
83.5902 172.373 l
83.5902 171.529 l
86.0745 171.529 l
h
92.1800 175.201 m
99.6956 175.201 l
99.6956 176.186 l
92.1800 176.186 l
92.1800 175.201 l
h
92.1800 177.592 m
99.6956 177.592 l
99.6956 178.592 l
92.1800 178.592 l
92.1800 177.592 l
h
108.893 177.357 m
108.028 177.357 107.427 177.456 107.088 177.654  c
106.750 177.852 106.580 178.191 106.580 178.670  c
106.580 179.055 106.708 179.360 106.963 179.584  c
107.218 179.808 107.560 179.920 107.987 179.920  c
108.591 179.920 109.073 179.709 109.432 179.287  c
109.791 178.865 109.971 178.300 109.971 177.592  c
109.971 177.357 l
108.893 177.357 l
h
111.049 176.904 m
111.049 180.654 l
109.971 180.654 l
109.971 179.654 l
109.721 180.050 109.414 180.344 109.049 180.537  c
108.685 180.730 108.237 180.826 107.705 180.826  c
107.028 180.826 106.492 180.636 106.096 180.256  c
105.700 179.876 105.502 179.373 105.502 178.748  c
105.502 178.008 105.750 177.451 106.244 177.076  c
106.739 176.701 107.476 176.514 108.455 176.514  c
109.971 176.514 l
109.971 176.404 l
109.971 175.904 109.807 175.519 109.479 175.248  c
109.151 174.977 108.695 174.842 108.112 174.842  c
107.737 174.842 107.369 174.889 107.010 174.982  c
106.651 175.076 106.310 175.212 105.987 175.389  c
105.987 174.389 l
106.382 174.232 106.765 174.118 107.135 174.045  c
107.505 173.972 107.867 173.936 108.221 173.936  c
109.169 173.936 109.877 174.180 110.346 174.670  c
110.815 175.160 111.049 175.904 111.049 176.904  c
h
113.168 171.529 m
115.653 171.529 l
115.653 172.373 l
114.246 172.373 l
114.246 181.404 l
115.653 181.404 l
115.653 182.232 l
113.168 182.232 l
113.168 171.529 l
h
117.944 174.092 m
119.022 174.092 l
119.022 180.654 l
117.944 180.654 l
117.944 174.092 l
h
117.944 171.529 m
119.022 171.529 l
119.022 172.904 l
117.944 172.904 l
117.944 171.529 l
h
123.809 171.529 m
123.809 182.232 l
121.325 182.232 l
121.325 181.404 l
122.715 181.404 l
122.715 172.373 l
121.325 172.373 l
121.325 171.529 l
123.809 171.529 l
h
125.866 171.529 m
128.350 171.529 l
128.350 172.373 l
126.944 172.373 l
126.944 181.404 l
128.350 181.404 l
128.350 182.232 l
125.866 182.232 l
125.866 171.529 l
h
133.328 172.686 m
132.724 172.686 132.269 172.985 131.961 173.584  c
131.654 174.183 131.500 175.087 131.500 176.295  c
131.500 177.493 131.654 178.391 131.961 178.990  c
132.269 179.589 132.724 179.889 133.328 179.889  c
133.943 179.889 134.404 179.589 134.711 178.990  c
135.019 178.391 135.172 177.493 135.172 176.295  c
135.172 175.087 135.019 174.183 134.711 173.584  c
134.404 172.985 133.943 172.686 133.328 172.686  c
h
133.328 171.748 m
134.308 171.748 135.058 172.136 135.578 172.912  c
136.099 173.688 136.360 174.816 136.360 176.295  c
136.360 177.764 136.099 178.886 135.578 179.662  c
135.058 180.438 134.308 180.826 133.328 180.826  c
132.349 180.826 131.602 180.438 131.086 179.662  c
130.571 178.886 130.313 177.764 130.313 176.295  c
130.313 174.816 130.571 173.688 131.086 172.912  c
131.602 172.136 132.349 171.748 133.328 171.748  c
h
140.807 171.529 m
140.807 182.232 l
138.323 182.232 l
138.323 181.404 l
139.713 181.404 l
139.713 172.373 l
138.323 172.373 l
138.323 171.529 l
140.807 171.529 l
h
151.287 173.342 m
149.194 174.482 l
151.287 175.623 l
150.944 176.201 l
148.975 175.014 l
148.975 177.217 l
148.319 177.217 l
148.319 175.014 l
146.350 176.201 l
146.006 175.623 l
148.116 174.482 l
146.006 173.342 l
146.350 172.764 l
148.319 173.951 l
148.319 171.748 l
148.975 171.748 l
148.975 173.951 l
150.944 172.764 l
151.287 173.342 l
h
159.571 177.357 m
158.706 177.357 158.104 177.456 157.766 177.654  c
157.427 177.852 157.258 178.191 157.258 178.670  c
157.258 179.055 157.386 179.360 157.641 179.584  c
157.896 179.808 158.237 179.920 158.664 179.920  c
159.269 179.920 159.750 179.709 160.110 179.287  c
160.469 178.865 160.649 178.300 160.649 177.592  c
160.649 177.357 l
159.571 177.357 l
h
161.727 176.904 m
161.727 180.654 l
160.649 180.654 l
160.649 179.654 l
160.399 180.050 160.091 180.344 159.727 180.537  c
159.362 180.730 158.914 180.826 158.383 180.826  c
157.706 180.826 157.170 180.636 156.774 180.256  c
156.378 179.876 156.180 179.373 156.180 178.748  c
156.180 178.008 156.427 177.451 156.922 177.076  c
157.417 176.701 158.154 176.514 159.133 176.514  c
160.649 176.514 l
160.649 176.404 l
160.649 175.904 160.485 175.519 160.157 175.248  c
159.828 174.977 159.373 174.842 158.789 174.842  c
158.414 174.842 158.047 174.889 157.688 174.982  c
157.328 175.076 156.987 175.212 156.664 175.389  c
156.664 174.389 l
157.060 174.232 157.443 174.118 157.813 174.045  c
158.183 173.972 158.545 173.936 158.899 173.936  c
159.847 173.936 160.555 174.180 161.024 174.670  c
161.493 175.160 161.727 175.904 161.727 176.904  c
h
163.846 171.529 m
166.330 171.529 l
166.330 172.373 l
164.924 172.373 l
164.924 181.404 l
166.330 181.404 l
166.330 182.232 l
163.846 182.232 l
163.846 171.529 l
h
168.621 174.092 m
169.700 174.092 l
169.700 180.654 l
168.621 180.654 l
168.621 174.092 l
h
168.621 171.529 m
169.700 171.529 l
169.700 172.904 l
168.621 172.904 l
168.621 171.529 l
h
174.487 171.529 m
174.487 182.232 l
172.002 182.232 l
172.002 181.404 l
173.393 181.404 l
173.393 172.373 l
172.002 172.373 l
172.002 171.529 l
174.487 171.529 l
h
176.543 171.529 m
179.028 171.529 l
179.028 172.373 l
177.621 172.373 l
177.621 181.404 l
179.028 181.404 l
179.028 182.232 l
176.543 182.232 l
176.543 171.529 l
h
181.678 179.654 m
183.616 179.654 l
183.616 172.982 l
181.506 173.404 l
181.506 172.326 l
183.600 171.904 l
184.787 171.904 l
184.787 179.654 l
186.725 179.654 l
186.725 180.654 l
181.678 180.654 l
181.678 179.654 l
h
191.485 171.529 m
191.485 182.232 l
189.000 182.232 l
189.000 181.404 l
190.391 181.404 l
190.391 172.373 l
189.000 172.373 l
189.000 171.529 l
191.485 171.529 l
h
f
2 J
10.0000 M
Q
q
<< /PatternType 2
   /Shading
   << /ShadingType 2
      /ColorSpace /DeviceRGB
      /Coords [4.833333492279053 313.0 204.8333282470703 373.0]
      /Function
      << /FunctionType 2
         /Domain [0 1]
         /Range [0 1 0 1 0 1]
         /C0 [0.9098039 0.93333334 0.96862745]
         /C1 [0.7176471 0.7882353 0.8901961]
         /N 1
      >>
      /Extend [true true]
   >>
>>
matrix makepattern setpattern
newpath
4.83333 313.000 m
204.833 313.000 l
204.833 373.000 l
4.83333 373.000 l
h
f
0 J
1.45000 M
0.00000 0.00000 0.00000 RG
newpath
4.83333 313.000 m
204.833 313.000 l
204.833 373.000 l
4.83333 373.000 l
h
S
2 J
10.0000 M
0 J
1.45000 M
newpath
12.5228 341.592 m
12.3978 341.529 12.2650 341.480 12.1243 341.443  c
11.9837 341.407 11.8249 341.389 11.6478 341.389  c
11.0436 341.389 10.5775 341.587 10.2493 341.982  c
9.92122 342.378 9.75716 342.951 9.75716 343.701  c
9.75716 347.154 l
8.67904 347.154 l
8.67904 340.592 l
9.75716 340.592 l
9.75716 341.607 l
9.98633 341.212 10.2832 340.917 10.6478 340.725  c
11.0124 340.532 11.4551 340.436 11.9759 340.436  c
12.0488 340.436 12.1296 340.441 12.2181 340.451  c
12.3066 340.462 12.4030 340.477 12.5072 340.498  c
12.5228 341.592 l
h
16.1908 341.342 m
15.6178 341.342 15.1621 341.568 14.8236 342.021  c
14.4850 342.475 14.3158 343.092 14.3158 343.873  c
14.3158 344.665 14.4824 345.285 14.8158 345.732  c
15.1491 346.180 15.6074 346.404 16.1908 346.404  c
16.7637 346.404 17.2194 346.178 17.5579 345.725  c
17.8965 345.271 18.0658 344.654 18.0658 343.873  c
18.0658 343.102 17.8965 342.488 17.5579 342.029  c
17.2194 341.571 16.7637 341.342 16.1908 341.342  c
h
16.1908 340.436 m
17.1283 340.436 17.8652 340.740 18.4017 341.350  c
18.9382 341.959 19.2064 342.800 19.2064 343.873  c
19.2064 344.946 18.9382 345.790 18.4017 346.404  c
17.8652 347.019 17.1283 347.326 16.1908 347.326  c
15.2533 347.326 14.5163 347.019 13.9798 346.404  c
13.4434 345.790 13.1751 344.946 13.1751 343.873  c
13.1751 342.800 13.4434 341.959 13.9798 341.350  c
14.5163 340.740 15.2533 340.436 16.1908 340.436  c
h
20.3607 340.592 m
21.4388 340.592 l
22.7982 345.717 l
24.1263 340.592 l
25.4076 340.592 l
26.7513 345.717 l
28.0951 340.592 l
29.1732 340.592 l
27.4544 347.154 l
26.1888 347.154 l
24.7669 341.779 l
23.3607 347.154 l
22.0794 347.154 l
20.3607 340.592 l
h
34.1283 338.029 m
34.1283 338.936 l
33.0970 338.936 l
32.7116 338.936 32.4434 339.014 32.2923 339.170  c
32.1413 339.326 32.0658 339.607 32.0658 340.014  c
32.0658 340.592 l
33.8470 340.592 l
33.8470 341.436 l
32.0658 341.436 l
32.0658 347.154 l
30.9876 347.154 l
30.9876 341.436 l
29.9564 341.436 l
29.9564 340.592 l
30.9876 340.592 l
30.9876 340.139 l
30.9876 339.410 31.1569 338.876 31.4954 338.537  c
31.8340 338.199 32.3730 338.029 33.1126 338.029  c
34.1283 338.029 l
h
38.0091 343.857 m
37.1445 343.857 36.5430 343.956 36.2044 344.154  c
35.8659 344.352 35.6966 344.691 35.6966 345.170  c
35.6966 345.555 35.8242 345.860 36.0794 346.084  c
36.3346 346.308 36.6758 346.420 37.1029 346.420  c
37.7070 346.420 38.1888 346.209 38.5482 345.787  c
38.9076 345.365 39.0872 344.800 39.0872 344.092  c
39.0872 343.857 l
38.0091 343.857 l
h
40.1654 343.404 m
40.1654 347.154 l
39.0872 347.154 l
39.0872 346.154 l
38.8372 346.550 38.5299 346.844 38.1654 347.037  c
37.8008 347.230 37.3529 347.326 36.8216 347.326  c
36.1445 347.326 35.6081 347.136 35.2122 346.756  c
34.8164 346.376 34.6185 345.873 34.6185 345.248  c
34.6185 344.508 34.8659 343.951 35.3607 343.576  c
35.8555 343.201 36.5924 343.014 37.5716 343.014  c
39.0872 343.014 l
39.0872 342.904 l
39.0872 342.404 38.9232 342.019 38.5951 341.748  c
38.2669 341.477 37.8112 341.342 37.2279 341.342  c
36.8529 341.342 36.4857 341.389 36.1263 341.482  c
35.7669 341.576 35.4258 341.712 35.1029 341.889  c
35.1029 340.889 l
35.4987 340.732 35.8815 340.618 36.2513 340.545  c
36.6211 340.472 36.9831 340.436 37.3372 340.436  c
38.2852 340.436 38.9935 340.680 39.4622 341.170  c
39.9310 341.660 40.1654 342.404 40.1654 343.404  c
h
47.1126 340.842 m
47.1126 341.857 l
46.8001 341.680 46.4928 341.550 46.1908 341.467  c
45.8887 341.383 45.5814 341.342 45.2689 341.342  c
44.5605 341.342 44.0137 341.563 43.6283 342.006  c
43.2428 342.449 43.0501 343.071 43.0501 343.873  c
43.0501 344.675 43.2428 345.298 43.6283 345.740  c
44.0137 346.183 44.5605 346.404 45.2689 346.404  c
45.5814 346.404 45.8887 346.363 46.1908 346.279  c
46.4928 346.196 46.8001 346.071 47.1126 345.904  c
47.1126 346.904 l
46.8105 347.040 46.4980 347.144 46.1751 347.217  c
45.8522 347.290 45.5085 347.326 45.1439 347.326  c
44.1543 347.326 43.3678 347.016 42.7845 346.396  c
42.2012 345.777 41.9095 344.936 41.9095 343.873  c
41.9095 342.811 42.2038 341.972 42.7923 341.357  c
43.3809 340.743 44.1908 340.436 45.2220 340.436  c
45.5449 340.436 45.8652 340.469 46.1829 340.537  c
46.5006 340.605 46.8105 340.706 47.1126 340.842  c
h
50.0540 338.732 m
50.0540 340.592 l
52.2728 340.592 l
52.2728 341.436 l
50.0540 341.436 l
50.0540 344.998 l
50.0540 345.529 50.1270 345.870 50.2728 346.021  c
50.4186 346.173 50.7155 346.248 51.1634 346.248  c
52.2728 346.248 l
52.2728 347.154 l
51.1634 347.154 l
50.3301 347.154 49.7546 346.998 49.4368 346.686  c
49.1191 346.373 48.9603 345.811 48.9603 344.998  c
48.9603 341.436 l
48.1790 341.436 l
48.1790 340.592 l
48.9603 340.592 l
48.9603 338.732 l
50.0540 338.732 l
h
56.2279 341.342 m
55.6549 341.342 55.1992 341.568 54.8607 342.021  c
54.5221 342.475 54.3529 343.092 54.3529 343.873  c
54.3529 344.665 54.5195 345.285 54.8529 345.732  c
55.1862 346.180 55.6445 346.404 56.2279 346.404  c
56.8008 346.404 57.2565 346.178 57.5951 345.725  c
57.9336 345.271 58.1029 344.654 58.1029 343.873  c
58.1029 343.102 57.9336 342.488 57.5951 342.029  c
57.2565 341.571 56.8008 341.342 56.2279 341.342  c
h
56.2279 340.436 m
57.1654 340.436 57.9023 340.740 58.4388 341.350  c
58.9753 341.959 59.2435 342.800 59.2435 343.873  c
59.2435 344.946 58.9753 345.790 58.4388 346.404  c
57.9023 347.019 57.1654 347.326 56.2279 347.326  c
55.2904 347.326 54.5534 347.019 54.0169 346.404  c
53.4805 345.790 53.2122 344.946 53.2122 343.873  c
53.2122 342.800 53.4805 341.959 54.0169 341.350  c
54.5534 340.740 55.2904 340.436 56.2279 340.436  c
h
64.8353 341.592 m
64.7103 341.529 64.5775 341.480 64.4368 341.443  c
64.2962 341.407 64.1374 341.389 63.9603 341.389  c
63.3561 341.389 62.8900 341.587 62.5618 341.982  c
62.2337 342.378 62.0697 342.951 62.0697 343.701  c
62.0697 347.154 l
60.9915 347.154 l
60.9915 340.592 l
62.0697 340.592 l
62.0697 341.607 l
62.2988 341.212 62.5957 340.917 62.9603 340.725  c
63.3249 340.532 63.7676 340.436 64.2884 340.436  c
64.3613 340.436 64.4421 340.441 64.5306 340.451  c
64.6191 340.462 64.7155 340.477 64.8197 340.498  c
64.8353 341.592 l
h
65.8626 338.029 m
68.3470 338.029 l
68.3470 338.873 l
66.9408 338.873 l
66.9408 347.904 l
68.3470 347.904 l
68.3470 348.732 l
65.8626 348.732 l
65.8626 338.029 l
h
70.6380 340.592 m
71.7161 340.592 l
71.7161 347.154 l
70.6380 347.154 l
70.6380 340.592 l
h
70.6380 338.029 m
71.7161 338.029 l
71.7161 339.404 l
70.6380 339.404 l
70.6380 338.029 l
h
76.5033 338.029 m
76.5033 348.732 l
74.0189 348.732 l
74.0189 347.904 l
75.4095 347.904 l
75.4095 338.873 l
74.0189 338.873 l
74.0189 338.029 l
76.5033 338.029 l
h
86.8587 339.623 m
86.8587 342.889 l
90.1244 342.889 l
90.1244 343.889 l
86.8587 343.889 l
86.8587 347.154 l
85.8744 347.154 l
85.8744 343.889 l
82.6087 343.889 l
82.6087 342.889 l
85.8744 342.889 l
85.8744 339.623 l
86.8587 339.623 l
h
92.6634 341.701 m
100.179 341.701 l
100.179 342.686 l
92.6634 342.686 l
92.6634 341.701 l
h
92.6634 344.092 m
100.179 344.092 l
100.179 345.092 l
92.6634 345.092 l
92.6634 344.092 l
h
109.376 343.857 m
108.512 343.857 107.910 343.956 107.572 344.154  c
107.233 344.352 107.064 344.691 107.064 345.170  c
107.064 345.555 107.191 345.860 107.447 346.084  c
107.702 346.308 108.043 346.420 108.470 346.420  c
109.074 346.420 109.556 346.209 109.915 345.787  c
110.275 345.365 110.454 344.800 110.454 344.092  c
110.454 343.857 l
109.376 343.857 l
h
111.533 343.404 m
111.533 347.154 l
110.454 347.154 l
110.454 346.154 l
110.204 346.550 109.897 346.844 109.533 347.037  c
109.168 347.230 108.720 347.326 108.189 347.326  c
107.512 347.326 106.975 347.136 106.579 346.756  c
106.184 346.376 105.986 345.873 105.986 345.248  c
105.986 344.508 106.233 343.951 106.728 343.576  c
107.223 343.201 107.960 343.014 108.939 343.014  c
110.454 343.014 l
110.454 342.904 l
110.454 342.404 110.290 342.019 109.962 341.748  c
109.634 341.477 109.178 341.342 108.595 341.342  c
108.220 341.342 107.853 341.389 107.493 341.482  c
107.134 341.576 106.793 341.712 106.470 341.889  c
106.470 340.889 l
106.866 340.732 107.249 340.618 107.618 340.545  c
107.988 340.472 108.350 340.436 108.704 340.436  c
109.652 340.436 110.361 340.680 110.829 341.170  c
111.298 341.660 111.533 342.404 111.533 343.404  c
h
113.652 338.029 m
116.136 338.029 l
116.136 338.873 l
114.730 338.873 l
114.730 347.904 l
116.136 347.904 l
116.136 348.732 l
113.652 348.732 l
113.652 338.029 l
h
118.427 340.592 m
119.505 340.592 l
119.505 347.154 l
118.427 347.154 l
118.427 340.592 l
h
118.427 338.029 m
119.505 338.029 l
119.505 339.404 l
118.427 339.404 l
118.427 338.029 l
h
124.292 338.029 m
124.292 348.732 l
121.808 348.732 l
121.808 347.904 l
123.199 347.904 l
123.199 338.873 l
121.808 338.873 l
121.808 338.029 l
124.292 338.029 l
h
126.349 338.029 m
128.833 338.029 l
128.833 338.873 l
127.427 338.873 l
127.427 347.904 l
128.833 347.904 l
128.833 348.732 l
126.349 348.732 l
126.349 338.029 l
h
131.124 340.592 m
132.202 340.592 l
132.202 347.279 l
132.202 348.113 132.044 348.717 131.726 349.092  c
131.408 349.467 130.895 349.654 130.187 349.654  c
129.781 349.654 l
129.781 348.732 l
130.077 348.732 l
130.484 348.732 130.760 348.639 130.906 348.451  c
131.051 348.264 131.124 347.873 131.124 347.279  c
131.124 340.592 l
h
131.124 338.029 m
132.202 338.029 l
132.202 339.404 l
131.124 339.404 l
131.124 338.029 l
h
136.990 338.029 m
136.990 348.732 l
134.505 348.732 l
134.505 347.904 l
135.896 347.904 l
135.896 338.873 l
134.505 338.873 l
134.505 338.029 l
136.990 338.029 l
h
147.470 339.842 m
145.376 340.982 l
147.470 342.123 l
147.126 342.701 l
145.158 341.514 l
145.158 343.717 l
144.501 343.717 l
144.501 341.514 l
142.533 342.701 l
142.189 342.123 l
144.298 340.982 l
142.189 339.842 l
142.533 339.264 l
144.501 340.451 l
144.501 338.248 l
145.158 338.248 l
145.158 340.451 l
147.126 339.264 l
147.470 339.842 l
h
155.753 343.857 m
154.889 343.857 154.287 343.956 153.949 344.154  c
153.610 344.352 153.441 344.691 153.441 345.170  c
153.441 345.555 153.568 345.860 153.824 346.084  c
154.079 346.308 154.420 346.420 154.847 346.420  c
155.451 346.420 155.933 346.209 156.292 345.787  c
156.652 345.365 156.831 344.800 156.831 344.092  c
156.831 343.857 l
155.753 343.857 l
h
157.910 343.404 m
157.910 347.154 l
156.831 347.154 l
156.831 346.154 l
156.581 346.550 156.274 346.844 155.910 347.037  c
155.545 347.230 155.097 347.326 154.566 347.326  c
153.889 347.326 153.352 347.136 152.956 346.756  c
152.561 346.376 152.363 345.873 152.363 345.248  c
152.363 344.508 152.610 343.951 153.105 343.576  c
153.600 343.201 154.337 343.014 155.316 343.014  c
156.831 343.014 l
156.831 342.904 l
156.831 342.404 156.667 342.019 156.339 341.748  c
156.011 341.477 155.555 341.342 154.972 341.342  c
154.597 341.342 154.230 341.389 153.870 341.482  c
153.511 341.576 153.170 341.712 152.847 341.889  c
152.847 340.889 l
153.243 340.732 153.626 340.618 153.995 340.545  c
154.365 340.472 154.727 340.436 155.081 340.436  c
156.029 340.436 156.738 340.680 157.206 341.170  c
157.675 341.660 157.910 342.404 157.910 343.404  c
h
160.029 338.029 m
162.513 338.029 l
162.513 338.873 l
161.107 338.873 l
161.107 347.904 l
162.513 347.904 l
162.513 348.732 l
160.029 348.732 l
160.029 338.029 l
h
164.804 340.592 m
165.882 340.592 l
165.882 347.154 l
164.804 347.154 l
164.804 340.592 l
h
164.804 338.029 m
165.882 338.029 l
165.882 339.404 l
164.804 339.404 l
164.804 338.029 l
h
170.669 338.029 m
170.669 348.732 l
168.185 348.732 l
168.185 347.904 l
169.576 347.904 l
169.576 338.873 l
168.185 338.873 l
168.185 338.029 l
170.669 338.029 l
h
172.726 338.029 m
175.210 338.029 l
175.210 338.873 l
173.804 338.873 l
173.804 347.904 l
175.210 347.904 l
175.210 348.732 l
172.726 348.732 l
172.726 338.029 l
h
177.501 340.592 m
178.579 340.592 l
178.579 347.279 l
178.579 348.113 178.421 348.717 178.103 349.092  c
177.785 349.467 177.272 349.654 176.564 349.654  c
176.158 349.654 l
176.158 348.732 l
176.454 348.732 l
176.861 348.732 177.137 348.639 177.283 348.451  c
177.428 348.264 177.501 347.873 177.501 347.279  c
177.501 340.592 l
h
177.501 338.029 m
178.579 338.029 l
178.579 339.404 l
177.501 339.404 l
177.501 338.029 l
h
185.226 339.623 m
185.226 342.889 l
188.492 342.889 l
188.492 343.889 l
185.226 343.889 l
185.226 347.154 l
184.242 347.154 l
184.242 343.889 l
180.976 343.889 l
180.976 342.889 l
184.242 342.889 l
184.242 339.623 l
185.226 339.623 l
h
191.249 346.154 m
193.187 346.154 l
193.187 339.482 l
191.077 339.904 l
191.077 338.826 l
193.171 338.404 l
194.359 338.404 l
194.359 346.154 l
196.296 346.154 l
196.296 347.154 l
191.249 347.154 l
191.249 346.154 l
h
201.056 338.029 m
201.056 348.732 l
198.572 348.732 l
198.572 347.904 l
199.962 347.904 l
199.962 338.873 l
198.572 338.873 l
198.572 338.029 l
201.056 338.029 l
h
f
2 J
10.0000 M
Q
q
<< /PatternType 2
   /Shading
   << /ShadingType 2
      /ColorSpace /DeviceRGB
      /Coords [4.833333492279053 543.0 204.8333282470703 583.0]
      /Function
      << /FunctionType 2
         /Domain [0 1]
         /Range [0 1 0 1 0 1]
         /C0 [0.9098039 0.93333334 0.96862745]
         /C1 [0.7176471 0.7882353 0.8901961]
         /N 1
      >>
      /Extend [true true]
   >>
>>
matrix makepattern setpattern
newpath
204.833 563.000 m
204.833 574.046 160.062 583.000 104.833 583.000  c
49.6049 583.000 4.83333 574.046 4.83333 563.000  c
4.83333 551.954 49.6049 543.000 104.833 543.000  c
160.062 543.000 204.833 551.954 204.833 563.000  c
h
f
0 J
1.45000 M
0.00000 0.00000 0.00000 RG
newpath
204.833 563.000 m
204.833 574.046 160.062 583.000 104.833 583.000  c
49.6049 583.000 4.83333 574.046 4.83333 563.000  c
4.83333 551.954 49.6049 543.000 104.833 543.000  c
160.062 543.000 204.833 551.954 204.833 563.000  c
h
S
2 J
10.0000 M
0 J
1.45000 M
newpath
86.3763 558.404 m
87.5638 558.404 l
87.5638 562.732 l
91.7982 558.404 l
93.3138 558.404 l
89.9388 561.857 l
93.4857 567.154 l
92.2044 567.154 l
89.1732 562.654 l
87.5638 564.279 l
87.5638 567.154 l
86.3763 567.154 l
86.3763 558.404 l
h
97.3958 561.342 m
96.8229 561.342 96.3672 561.568 96.0286 562.021  c
95.6901 562.475 95.5208 563.092 95.5208 563.873  c
95.5208 564.665 95.6875 565.285 96.0208 565.732  c
96.3542 566.180 96.8125 566.404 97.3958 566.404  c
97.9688 566.404 98.4245 566.178 98.7630 565.725  c
99.1016 565.271 99.2708 564.654 99.2708 563.873  c
99.2708 563.102 99.1016 562.488 98.7630 562.029  c
98.4245 561.571 97.9688 561.342 97.3958 561.342  c
h
97.3958 560.436 m
98.3333 560.436 99.0703 560.740 99.6068 561.350  c
100.143 561.959 100.411 562.800 100.411 563.873  c
100.411 564.946 100.143 565.790 99.6068 566.404  c
99.0703 567.019 98.3333 567.326 97.3958 567.326  c
96.4583 567.326 95.7214 567.019 95.1849 566.404  c
94.6484 565.790 94.3802 564.946 94.3802 563.873  c
94.3802 562.800 94.6484 561.959 95.1849 561.350  c
95.7214 560.740 96.4583 560.436 97.3958 560.436  c
h
102.160 560.592 m
103.238 560.592 l
103.238 563.264 l
106.738 563.264 l
106.738 560.592 l
107.816 560.592 l
107.816 567.154 l
106.738 567.154 l
106.738 564.123 l
103.238 564.123 l
103.238 567.154 l
102.160 567.154 l
102.160 560.592 l
h
115.661 563.607 m
115.661 564.123 l
110.693 564.123 l
110.745 564.873 110.971 565.441 111.372 565.826  c
111.773 566.212 112.328 566.404 113.036 566.404  c
113.453 566.404 113.857 566.355 114.247 566.256  c
114.638 566.157 115.026 566.003 115.411 565.795  c
115.411 566.826 l
115.016 566.982 114.615 567.105 114.208 567.193  c
113.802 567.282 113.391 567.326 112.974 567.326  c
111.932 567.326 111.104 567.021 110.490 566.412  c
109.875 565.803 109.568 564.977 109.568 563.936  c
109.568 562.863 109.859 562.011 110.443 561.381  c
111.026 560.751 111.807 560.436 112.786 560.436  c
113.672 560.436 114.372 560.719 114.888 561.287  c
115.404 561.855 115.661 562.628 115.661 563.607  c
h
114.583 563.279 m
114.573 562.696 114.406 562.227 114.083 561.873  c
113.760 561.519 113.333 561.342 112.802 561.342  c
112.198 561.342 111.716 561.514 111.357 561.857  c
110.997 562.201 110.792 562.680 110.740 563.295  c
114.583 563.279 l
h
123.044 567.154 m
117.388 567.154 l
117.388 560.592 l
118.466 560.592 l
118.466 566.295 l
121.966 566.295 l
121.966 560.592 l
123.044 560.592 l
123.044 566.295 l
123.919 566.295 l
123.919 568.811 l
123.044 568.811 l
123.044 567.154 l
h
f
2 J
10.0000 M
Q
q
<< /PatternType 2
   /Shading
   << /ShadingType 2
      /ColorSpace /DeviceRGB
      /Coords [4.833333492279053 70.0 204.8333282470703 110.0]
      /Function
      << /FunctionType 2
         /Domain [0 1]
         /Range [0 1 0 1 0 1]
         /C0 [0.9098039 0.93333334 0.96862745]
         /C1 [0.7176471 0.7882353 0.8901961]
         /N 1
      >>
      /Extend [true true]
   >>
>>
matrix makepattern setpattern
newpath
14.8333 70.0000 m
194.833 70.0000 l
204.833 80.0000 l
204.833 110.000 l
4.83333 110.000 l
4.83333 80.0000 l
h
f
0 J
1.45000 M
0.00000 0.00000 0.00000 RG
newpath
14.8333 70.0000 m
194.833 70.0000 l
204.833 80.0000 l
204.833 110.000 l
4.83333 110.000 l
4.83333 80.0000 l
h
S
2 J
10.0000 M
0 J
1.45000 M
newpath
79.8988 80.6074 m
80.9769 80.6074 l
80.9769 87.1699 l
79.8988 87.1699 l
79.8988 80.6074 l
h
79.8988 78.0449 m
80.9769 78.0449 l
80.9769 79.4199 l
79.8988 79.4199 l
79.8988 78.0449 l
h
87.1878 81.7168 m
94.7035 81.7168 l
94.7035 82.7012 l
87.1878 82.7012 l
87.1878 81.7168 l
h
87.1878 84.1074 m
94.7035 84.1074 l
94.7035 85.1074 l
87.1878 85.1074 l
87.1878 84.1074 l
h
99.7894 79.2012 m
99.1852 79.2012 98.7295 79.5007 98.4222 80.0996  c
98.1149 80.6986 97.9613 81.6022 97.9613 82.8105  c
97.9613 84.0085 98.1149 84.9069 98.4222 85.5059  c
98.7295 86.1048 99.1852 86.4043 99.7894 86.4043  c
100.404 86.4043 100.865 86.1048 101.172 85.5059  c
101.479 84.9069 101.633 84.0085 101.633 82.8105  c
101.633 81.6022 101.479 80.6986 101.172 80.0996  c
100.865 79.5007 100.404 79.2012 99.7894 79.2012  c
h
99.7894 78.2637 m
100.769 78.2637 101.519 78.6517 102.039 79.4277  c
102.560 80.2038 102.821 81.3314 102.821 82.8105  c
102.821 84.2793 102.560 85.4017 102.039 86.1777  c
101.519 86.9538 100.769 87.3418 99.7894 87.3418  c
98.8102 87.3418 98.0628 86.9538 97.5472 86.1777  c
97.0316 85.4017 96.7738 84.2793 96.7738 82.8105  c
96.7738 81.3314 97.0316 80.2038 97.5472 79.4277  c
98.0628 78.6517 98.8102 78.2637 99.7894 78.2637  c
h
109.629 78.7480 m
109.629 80.6074 l
111.848 80.6074 l
111.848 81.4512 l
109.629 81.4512 l
109.629 85.0137 l
109.629 85.5449 109.702 85.8861 109.848 86.0371  c
109.994 86.1882 110.291 86.2637 110.739 86.2637  c
111.848 86.2637 l
111.848 87.1699 l
110.739 87.1699 l
109.905 87.1699 109.330 87.0137 109.012 86.7012  c
108.694 86.3887 108.535 85.8262 108.535 85.0137  c
108.535 81.4512 l
107.754 81.4512 l
107.754 80.6074 l
108.535 80.6074 l
108.535 78.7480 l
109.629 78.7480 l
h
115.803 81.3574 m
115.230 81.3574 114.774 81.5840 114.436 82.0371  c
114.097 82.4902 113.928 83.1074 113.928 83.8887  c
113.928 84.6803 114.095 85.3001 114.428 85.7480  c
114.761 86.1960 115.220 86.4199 115.803 86.4199  c
116.376 86.4199 116.832 86.1934 117.170 85.7402  c
117.509 85.2871 117.678 84.6699 117.678 83.8887  c
117.678 83.1178 117.509 82.5033 117.170 82.0449  c
116.832 81.5866 116.376 81.3574 115.803 81.3574  c
h
115.803 80.4512 m
116.741 80.4512 117.478 80.7559 118.014 81.3652  c
118.550 81.9746 118.819 82.8158 118.819 83.8887  c
118.819 84.9616 118.550 85.8053 118.014 86.4199  c
117.478 87.0345 116.741 87.3418 115.803 87.3418  c
114.866 87.3418 114.129 87.0345 113.592 86.4199  c
113.056 85.8053 112.787 84.9616 112.787 83.8887  c
112.787 82.8158 113.056 81.9746 113.592 81.3652  c
114.129 80.7559 114.866 80.4512 115.803 80.4512  c
h
129.881 83.2012 m
129.881 87.1699 l
128.803 87.1699 l
128.803 83.2480 l
128.803 82.6230 128.681 82.1569 128.436 81.8496  c
128.191 81.5423 127.829 81.3887 127.350 81.3887  c
126.767 81.3887 126.306 81.5736 125.967 81.9434  c
125.629 82.3132 125.459 82.8210 125.459 83.4668  c
125.459 87.1699 l
124.381 87.1699 l
124.381 80.6074 l
125.459 80.6074 l
125.459 81.6230 l
125.720 81.2272 126.024 80.9329 126.373 80.7402  c
126.722 80.5475 127.126 80.4512 127.584 80.4512  c
128.334 80.4512 128.905 80.6829 129.295 81.1465  c
129.686 81.6100 129.881 82.2949 129.881 83.2012  c
h
f
newpath
91.4427 94.7637 m
91.4427 95.7949 l
91.1406 95.6387 90.8255 95.5215 90.4974 95.4434  c
90.1693 95.3652 89.8281 95.3262 89.4740 95.3262  c
88.9427 95.3262 88.5417 95.4069 88.2708 95.5684  c
88.0000 95.7298 87.8646 95.9772 87.8646 96.3105  c
87.8646 96.5605 87.9609 96.7559 88.1536 96.8965  c
88.3464 97.0371 88.7344 97.1699 89.3177 97.2949  c
89.6771 97.3887 l
90.4479 97.5449 90.9948 97.7741 91.3177 98.0762  c
91.6406 98.3783 91.8021 98.7949 91.8021 99.3262  c
91.8021 99.9408 91.5599 100.425 91.0755 100.779  c
90.5911 101.133 89.9271 101.311 89.0833 101.311  c
88.7292 101.311 88.3620 101.277 87.9818 101.209  c
87.6016 101.141 87.2031 101.040 86.7865 100.904  c
86.7865 99.7793 l
87.1823 99.9876 87.5729 100.144 87.9583 100.248  c
88.3438 100.352 88.7292 100.404 89.1146 100.404  c
89.6146 100.404 90.0026 100.318 90.2786 100.146  c
90.5547 99.9746 90.6927 99.7272 90.6927 99.4043  c
90.6927 99.1126 90.5938 98.8887 90.3958 98.7324  c
90.1979 98.5762 89.7656 98.4251 89.0990 98.2793  c
88.7240 98.2012 l
88.0573 98.0553 87.5755 97.8366 87.2786 97.5449  c
86.9818 97.2533 86.8333 96.8574 86.8333 96.3574  c
86.8333 95.7324 87.0521 95.2533 87.4896 94.9199  c
87.9271 94.5866 88.5469 94.4199 89.3490 94.4199  c
89.7448 94.4199 90.1198 94.4486 90.4740 94.5059  c
90.8281 94.5632 91.1510 94.6491 91.4427 94.7637  c
h
94.5853 92.7168 m
94.5853 94.5762 l
96.8040 94.5762 l
96.8040 95.4199 l
94.5853 95.4199 l
94.5853 98.9824 l
94.5853 99.5137 94.6582 99.8548 94.8040 100.006  c
94.9499 100.157 95.2467 100.232 95.6947 100.232  c
96.8040 100.232 l
96.8040 101.139 l
95.6947 101.139 l
94.8613 101.139 94.2858 100.982 93.9681 100.670  c
93.6504 100.357 93.4915 99.7949 93.4915 98.9824  c
93.4915 95.4199 l
92.7103 95.4199 l
92.7103 94.5762 l
93.4915 94.5762 l
93.4915 92.7168 l
94.5853 92.7168 l
h
103.837 97.5918 m
103.837 98.1074 l
98.8685 98.1074 l
98.9206 98.8574 99.1471 99.4251 99.5482 99.8105  c
99.9492 100.196 100.504 100.389 101.212 100.389  c
101.629 100.389 102.033 100.339 102.423 100.240  c
102.814 100.141 103.202 99.9876 103.587 99.7793  c
103.587 100.811 l
103.191 100.967 102.790 101.089 102.384 101.178  c
101.978 101.266 101.566 101.311 101.150 101.311  c
100.108 101.311 99.2800 101.006 98.6654 100.396  c
98.0508 99.7871 97.7435 98.9616 97.7435 97.9199  c
97.7435 96.8470 98.0352 95.9954 98.6185 95.3652  c
99.2018 94.7350 99.9831 94.4199 100.962 94.4199  c
101.848 94.4199 102.548 94.7038 103.064 95.2715  c
103.579 95.8392 103.837 96.6126 103.837 97.5918  c
h
102.759 97.2637 m
102.749 96.6803 102.582 96.2116 102.259 95.8574  c
101.936 95.5033 101.509 95.3262 100.978 95.3262  c
100.374 95.3262 99.8919 95.4980 99.5326 95.8418  c
99.1732 96.1855 98.9675 96.6647 98.9154 97.2793  c
102.759 97.2637 l
h
106.642 100.154 m
106.642 103.639 l
105.564 103.639 l
105.564 94.5762 l
106.642 94.5762 l
106.642 95.5762 l
106.871 95.1803 107.158 94.8887 107.501 94.7012  c
107.845 94.5137 108.257 94.4199 108.736 94.4199  c
109.538 94.4199 110.189 94.7350 110.689 95.3652  c
111.189 95.9954 111.439 96.8262 111.439 97.8574  c
111.439 98.8887 111.189 99.7220 110.689 100.357  c
110.189 100.993 109.538 101.311 108.736 101.311  c
108.257 101.311 107.845 101.214 107.501 101.021  c
107.158 100.829 106.871 100.540 106.642 100.154  c
h
110.314 97.8574 m
110.314 97.0658 110.150 96.4460 109.822 95.9980  c
109.493 95.5501 109.048 95.3262 108.486 95.3262  c
107.913 95.3262 107.462 95.5501 107.134 95.9980  c
106.806 96.4460 106.642 97.0658 106.642 97.8574  c
106.642 98.6491 106.806 99.2715 107.134 99.7246  c
107.462 100.178 107.913 100.404 108.486 100.404  c
109.048 100.404 109.493 100.178 109.822 99.7246  c
110.150 99.2715 110.314 98.6491 110.314 97.8574  c
h
117.386 100.139 m
119.324 100.139 l
119.324 93.4668 l
117.214 93.8887 l
117.214 92.8105 l
119.308 92.3887 l
120.495 92.3887 l
120.495 100.139 l
122.433 100.139 l
122.433 101.139 l
117.386 101.139 l
117.386 100.139 l
h
f
2 J
10.0000 M
Q
q
<< /PatternType 2
   /Shading
   << /ShadingType 2
      /ColorSpace /DeviceRGB
      /Coords [4.833333492279053 243.0 204.8333282470703 283.0]
      /Function
      << /FunctionType 2
         /Domain [0 1]
         /Range [0 1 0 1 0 1]
         /C0 [0.9098039 0.93333334 0.96862745]
         /C1 [0.7176471 0.7882353 0.8901961]
         /N 1
      >>
      /Extend [true true]
   >>
>>
matrix makepattern setpattern
newpath
14.8333 243.000 m
194.833 243.000 l
204.833 253.000 l
204.833 283.000 l
4.83333 283.000 l
4.83333 253.000 l
h
f
0 J
1.45000 M
0.00000 0.00000 0.00000 RG
newpath
14.8333 243.000 m
194.833 243.000 l
204.833 253.000 l
204.833 283.000 l
4.83333 283.000 l
4.83333 253.000 l
h
S
2 J
10.0000 M
0 J
1.45000 M
newpath
41.2005 253.607 m
42.2786 253.607 l
42.2786 260.295 l
42.2786 261.128 42.1198 261.732 41.8021 262.107  c
41.4844 262.482 40.9714 262.670 40.2630 262.670  c
39.8568 262.670 l
39.8568 261.748 l
40.1536 261.748 l
40.5599 261.748 40.8359 261.654 40.9818 261.467  c
41.1276 261.279 41.2005 260.889 41.2005 260.295  c
41.2005 253.607 l
h
41.2005 251.045 m
42.2786 251.045 l
42.2786 252.420 l
41.2005 252.420 l
41.2005 251.045 l
h
48.4896 254.717 m
56.0052 254.717 l
56.0052 255.701 l
48.4896 255.701 l
48.4896 254.717 l
h
48.4896 257.107 m
56.0052 257.107 l
56.0052 258.107 l
48.4896 258.107 l
48.4896 257.107 l
h
63.3900 259.170 m
67.5306 259.170 l
67.5306 260.170 l
61.9681 260.170 l
61.9681 259.170 l
62.4160 258.712 63.0280 258.089 63.8040 257.303  c
64.5801 256.516 65.0671 256.008 65.2650 255.779  c
65.6504 255.363 65.9186 255.006 66.0697 254.709  c
66.2207 254.412 66.2962 254.123 66.2962 253.842  c
66.2962 253.373 66.1322 252.993 65.8040 252.701  c
65.4759 252.410 65.0514 252.264 64.5306 252.264  c
64.1556 252.264 63.7624 252.326 63.3509 252.451  c
62.9395 252.576 62.4993 252.774 62.0306 253.045  c
62.0306 251.842 l
62.5098 251.654 62.9551 251.511 63.3665 251.412  c
63.7780 251.313 64.1556 251.264 64.4993 251.264  c
65.4056 251.264 66.1296 251.490 66.6712 251.943  c
67.2129 252.396 67.4837 253.003 67.4837 253.764  c
67.4837 254.118 67.4160 254.456 67.2806 254.779  c
67.1452 255.102 66.9004 255.482 66.5462 255.920  c
66.4421 256.035 66.1296 256.363 65.6087 256.904  c
65.0879 257.446 64.3483 258.201 63.3900 259.170  c
h
74.7454 251.748 m
74.7454 253.607 l
76.9642 253.607 l
76.9642 254.451 l
74.7454 254.451 l
74.7454 258.014 l
74.7454 258.545 74.8184 258.886 74.9642 259.037  c
75.1100 259.188 75.4069 259.264 75.8548 259.264  c
76.9642 259.264 l
76.9642 260.170 l
75.8548 260.170 l
75.0215 260.170 74.4460 260.014 74.1283 259.701  c
73.8105 259.389 73.6517 258.826 73.6517 258.014  c
73.6517 254.451 l
72.8704 254.451 l
72.8704 253.607 l
73.6517 253.607 l
73.6517 251.748 l
74.7454 251.748 l
h
80.9193 254.357 m
80.3463 254.357 79.8906 254.584 79.5521 255.037  c
79.2135 255.490 79.0443 256.107 79.0443 256.889  c
79.0443 257.680 79.2109 258.300 79.5443 258.748  c
79.8776 259.196 80.3359 259.420 80.9193 259.420  c
81.4922 259.420 81.9479 259.193 82.2865 258.740  c
82.6250 258.287 82.7943 257.670 82.7943 256.889  c
82.7943 256.118 82.6250 255.503 82.2865 255.045  c
81.9479 254.587 81.4922 254.357 80.9193 254.357  c
h
80.9193 253.451 m
81.8568 253.451 82.5937 253.756 83.1302 254.365  c
83.6667 254.975 83.9349 255.816 83.9349 256.889  c
83.9349 257.962 83.6667 258.805 83.1302 259.420  c
82.5937 260.035 81.8568 260.342 80.9193 260.342  c
79.9818 260.342 79.2448 260.035 78.7083 259.420  c
78.1719 258.805 77.9036 257.962 77.9036 256.889  c
77.9036 255.816 78.1719 254.975 78.7083 254.365  c
79.2448 253.756 79.9818 253.451 80.9193 253.451  c
h
92.5130 256.873 m
91.6484 256.873 91.0469 256.972 90.7083 257.170  c
90.3698 257.368 90.2005 257.706 90.2005 258.186  c
90.2005 258.571 90.3281 258.876 90.5833 259.100  c
90.8385 259.324 91.1797 259.436 91.6068 259.436  c
92.2109 259.436 92.6927 259.225 93.0521 258.803  c
93.4115 258.381 93.5911 257.816 93.5911 257.107  c
93.5911 256.873 l
92.5130 256.873 l
h
94.6693 256.420 m
94.6693 260.170 l
93.5911 260.170 l
93.5911 259.170 l
93.3411 259.566 93.0338 259.860 92.6693 260.053  c
92.3047 260.245 91.8568 260.342 91.3255 260.342  c
90.6484 260.342 90.1120 260.152 89.7161 259.771  c
89.3203 259.391 89.1224 258.889 89.1224 258.264  c
89.1224 257.524 89.3698 256.967 89.8646 256.592  c
90.3594 256.217 91.0963 256.029 92.0755 256.029  c
93.5911 256.029 l
93.5911 255.920 l
93.5911 255.420 93.4271 255.035 93.0990 254.764  c
92.7708 254.493 92.3151 254.357 91.7318 254.357  c
91.3568 254.357 90.9896 254.404 90.6302 254.498  c
90.2708 254.592 89.9297 254.727 89.6068 254.904  c
89.6068 253.904 l
90.0026 253.748 90.3854 253.633 90.7552 253.561  c
91.1250 253.488 91.4870 253.451 91.8411 253.451  c
92.7891 253.451 93.4974 253.696 93.9661 254.186  c
94.4349 254.675 94.6693 255.420 94.6693 256.420  c
h
97.0384 258.686 m
98.2728 258.686 l
98.2728 260.170 l
97.0384 260.170 l
97.0384 258.686 l
h
105.431 253.857 m
105.431 254.873 l
105.118 254.696 104.811 254.566 104.509 254.482  c
104.207 254.399 103.900 254.357 103.587 254.357  c
102.879 254.357 102.332 254.579 101.947 255.021  c
101.561 255.464 101.368 256.087 101.368 256.889  c
101.368 257.691 101.561 258.313 101.947 258.756  c
102.332 259.199 102.879 259.420 103.587 259.420  c
103.900 259.420 104.207 259.378 104.509 259.295  c
104.811 259.212 105.118 259.087 105.431 258.920  c
105.431 259.920 l
105.129 260.055 104.816 260.160 104.493 260.232  c
104.171 260.305 103.827 260.342 103.462 260.342  c
102.473 260.342 101.686 260.032 101.103 259.412  c
100.520 258.792 100.228 257.951 100.228 256.889  c
100.228 255.826 100.522 254.988 101.111 254.373  c
101.699 253.758 102.509 253.451 103.540 253.451  c
103.863 253.451 104.184 253.485 104.501 253.553  c
104.819 253.620 105.129 253.722 105.431 253.857  c
h
109.841 254.357 m
109.268 254.357 108.812 254.584 108.474 255.037  c
108.135 255.490 107.966 256.107 107.966 256.889  c
107.966 257.680 108.133 258.300 108.466 258.748  c
108.799 259.196 109.258 259.420 109.841 259.420  c
110.414 259.420 110.870 259.193 111.208 258.740  c
111.547 258.287 111.716 257.670 111.716 256.889  c
111.716 256.118 111.547 255.503 111.208 255.045  c
110.870 254.587 110.414 254.357 109.841 254.357  c
h
109.841 253.451 m
110.779 253.451 111.516 253.756 112.052 254.365  c
112.589 254.975 112.857 255.816 112.857 256.889  c
112.857 257.962 112.589 258.805 112.052 259.420  c
111.516 260.035 110.779 260.342 109.841 260.342  c
108.904 260.342 108.167 260.035 107.630 259.420  c
107.094 258.805 106.826 257.962 106.826 256.889  c
106.826 255.816 107.094 254.975 107.630 254.365  c
108.167 253.756 108.904 253.451 109.841 253.451  c
h
114.636 251.045 m
115.714 251.045 l
115.714 260.170 l
114.636 260.170 l
114.636 251.045 l
h
117.861 257.576 m
117.861 253.607 l
118.939 253.607 l
118.939 257.545 l
118.939 258.160 119.061 258.623 119.306 258.936  c
119.551 259.248 119.913 259.404 120.392 259.404  c
120.975 259.404 121.436 259.219 121.775 258.850  c
122.113 258.480 122.283 257.972 122.283 257.326  c
122.283 253.607 l
123.361 253.607 l
123.361 260.170 l
122.283 260.170 l
122.283 259.154 l
122.022 259.561 121.720 259.860 121.376 260.053  c
121.033 260.245 120.632 260.342 120.173 260.342  c
119.413 260.342 118.837 260.107 118.447 259.639  c
118.056 259.170 117.861 258.482 117.861 257.576  c
h
120.579 253.451 m
120.579 253.451 l
h
130.685 254.873 m
130.956 254.383 131.279 254.024 131.654 253.795  c
132.029 253.566 132.471 253.451 132.982 253.451  c
133.669 253.451 134.198 253.691 134.568 254.170  c
134.937 254.649 135.122 255.326 135.122 256.201  c
135.122 260.170 l
134.044 260.170 l
134.044 256.248 l
134.044 255.613 133.932 255.144 133.708 254.842  c
133.484 254.540 133.143 254.389 132.685 254.389  c
132.122 254.389 131.680 254.574 131.357 254.943  c
131.034 255.313 130.872 255.821 130.872 256.467  c
130.872 260.170 l
129.794 260.170 l
129.794 256.248 l
129.794 255.613 129.682 255.144 129.458 254.842  c
129.234 254.540 128.888 254.389 128.419 254.389  c
127.867 254.389 127.430 254.574 127.107 254.943  c
126.784 255.313 126.622 255.821 126.622 256.467  c
126.622 260.170 l
125.544 260.170 l
125.544 253.607 l
126.622 253.607 l
126.622 254.623 l
126.872 254.227 127.169 253.933 127.513 253.740  c
127.857 253.548 128.263 253.451 128.732 253.451  c
129.211 253.451 129.617 253.571 129.951 253.811  c
130.284 254.050 130.529 254.404 130.685 254.873  c
h
142.734 256.201 m
142.734 260.170 l
141.656 260.170 l
141.656 256.248 l
141.656 255.623 141.533 255.157 141.288 254.850  c
141.044 254.542 140.682 254.389 140.202 254.389  c
139.619 254.389 139.158 254.574 138.820 254.943  c
138.481 255.313 138.312 255.821 138.312 256.467  c
138.312 260.170 l
137.234 260.170 l
137.234 253.607 l
138.312 253.607 l
138.312 254.623 l
138.572 254.227 138.877 253.933 139.226 253.740  c
139.575 253.548 139.979 253.451 140.437 253.451  c
141.187 253.451 141.757 253.683 142.148 254.146  c
142.538 254.610 142.734 255.295 142.734 256.201  c
h
149.058 253.795 m
149.058 254.826 l
148.756 254.670 148.441 254.553 148.113 254.475  c
147.785 254.396 147.443 254.357 147.089 254.357  c
146.558 254.357 146.157 254.438 145.886 254.600  c
145.615 254.761 145.480 255.008 145.480 255.342  c
145.480 255.592 145.576 255.787 145.769 255.928  c
145.962 256.068 146.350 256.201 146.933 256.326  c
147.292 256.420 l
148.063 256.576 148.610 256.805 148.933 257.107  c
149.256 257.410 149.417 257.826 149.417 258.357  c
149.417 258.972 149.175 259.456 148.691 259.811  c
148.206 260.165 147.542 260.342 146.699 260.342  c
146.344 260.342 145.977 260.308 145.597 260.240  c
145.217 260.173 144.818 260.071 144.402 259.936  c
144.402 258.811 l
144.798 259.019 145.188 259.175 145.574 259.279  c
145.959 259.383 146.344 259.436 146.730 259.436  c
147.230 259.436 147.618 259.350 147.894 259.178  c
148.170 259.006 148.308 258.758 148.308 258.436  c
148.308 258.144 148.209 257.920 148.011 257.764  c
147.813 257.607 147.381 257.456 146.714 257.311  c
146.339 257.232 l
145.673 257.087 145.191 256.868 144.894 256.576  c
144.597 256.285 144.449 255.889 144.449 255.389  c
144.449 254.764 144.667 254.285 145.105 253.951  c
145.542 253.618 146.162 253.451 146.964 253.451  c
147.360 253.451 147.735 253.480 148.089 253.537  c
148.443 253.594 148.766 253.680 149.058 253.795  c
h
154.406 256.404 m
157.562 256.404 l
157.562 257.357 l
154.406 257.357 l
154.406 256.404 l
h
163.441 259.170 m
165.378 259.170 l
165.378 252.498 l
163.269 252.920 l
163.269 251.842 l
165.363 251.420 l
166.550 251.420 l
166.550 259.170 l
168.488 259.170 l
168.488 260.170 l
163.441 260.170 l
163.441 259.170 l
h
f
newpath
91.4427 267.764 m
91.4427 268.795 l
91.1406 268.639 90.8255 268.521 90.4974 268.443  c
90.1693 268.365 89.8281 268.326 89.4740 268.326  c
88.9427 268.326 88.5417 268.407 88.2708 268.568  c
88.0000 268.730 87.8646 268.977 87.8646 269.311  c
87.8646 269.561 87.9609 269.756 88.1536 269.896  c
88.3464 270.037 88.7344 270.170 89.3177 270.295  c
89.6771 270.389 l
90.4479 270.545 90.9948 270.774 91.3177 271.076  c
91.6406 271.378 91.8021 271.795 91.8021 272.326  c
91.8021 272.941 91.5599 273.425 91.0755 273.779  c
90.5911 274.133 89.9271 274.311 89.0833 274.311  c
88.7292 274.311 88.3620 274.277 87.9818 274.209  c
87.6016 274.141 87.2031 274.040 86.7865 273.904  c
86.7865 272.779 l
87.1823 272.988 87.5729 273.144 87.9583 273.248  c
88.3438 273.352 88.7292 273.404 89.1146 273.404  c
89.6146 273.404 90.0026 273.318 90.2786 273.146  c
90.5547 272.975 90.6927 272.727 90.6927 272.404  c
90.6927 272.113 90.5938 271.889 90.3958 271.732  c
90.1979 271.576 89.7656 271.425 89.0990 271.279  c
88.7240 271.201 l
88.0573 271.055 87.5755 270.837 87.2786 270.545  c
86.9818 270.253 86.8333 269.857 86.8333 269.357  c
86.8333 268.732 87.0521 268.253 87.4896 267.920  c
87.9271 267.587 88.5469 267.420 89.3490 267.420  c
89.7448 267.420 90.1198 267.449 90.4740 267.506  c
90.8281 267.563 91.1510 267.649 91.4427 267.764  c
h
94.5853 265.717 m
94.5853 267.576 l
96.8040 267.576 l
96.8040 268.420 l
94.5853 268.420 l
94.5853 271.982 l
94.5853 272.514 94.6582 272.855 94.8040 273.006  c
94.9499 273.157 95.2467 273.232 95.6947 273.232  c
96.8040 273.232 l
96.8040 274.139 l
95.6947 274.139 l
94.8613 274.139 94.2858 273.982 93.9681 273.670  c
93.6504 273.357 93.4915 272.795 93.4915 271.982  c
93.4915 268.420 l
92.7103 268.420 l
92.7103 267.576 l
93.4915 267.576 l
93.4915 265.717 l
94.5853 265.717 l
h
103.837 270.592 m
103.837 271.107 l
98.8685 271.107 l
98.9206 271.857 99.1471 272.425 99.5482 272.811  c
99.9492 273.196 100.504 273.389 101.212 273.389  c
101.629 273.389 102.033 273.339 102.423 273.240  c
102.814 273.141 103.202 272.988 103.587 272.779  c
103.587 273.811 l
103.191 273.967 102.790 274.089 102.384 274.178  c
101.978 274.266 101.566 274.311 101.150 274.311  c
100.108 274.311 99.2800 274.006 98.6654 273.396  c
98.0508 272.787 97.7435 271.962 97.7435 270.920  c
97.7435 269.847 98.0352 268.995 98.6185 268.365  c
99.2018 267.735 99.9831 267.420 100.962 267.420  c
101.848 267.420 102.548 267.704 103.064 268.271  c
103.579 268.839 103.837 269.613 103.837 270.592  c
h
102.759 270.264 m
102.749 269.680 102.582 269.212 102.259 268.857  c
101.936 268.503 101.509 268.326 100.978 268.326  c
100.374 268.326 99.8919 268.498 99.5326 268.842  c
99.1732 269.186 98.9675 269.665 98.9154 270.279  c
102.759 270.264 l
h
106.642 273.154 m
106.642 276.639 l
105.564 276.639 l
105.564 267.576 l
106.642 267.576 l
106.642 268.576 l
106.871 268.180 107.158 267.889 107.501 267.701  c
107.845 267.514 108.257 267.420 108.736 267.420  c
109.538 267.420 110.189 267.735 110.689 268.365  c
111.189 268.995 111.439 269.826 111.439 270.857  c
111.439 271.889 111.189 272.722 110.689 273.357  c
110.189 273.993 109.538 274.311 108.736 274.311  c
108.257 274.311 107.845 274.214 107.501 274.021  c
107.158 273.829 106.871 273.540 106.642 273.154  c
h
110.314 270.857 m
110.314 270.066 110.150 269.446 109.822 268.998  c
109.493 268.550 109.048 268.326 108.486 268.326  c
107.913 268.326 107.462 268.550 107.134 268.998  c
106.806 269.446 106.642 270.066 106.642 270.857  c
106.642 271.649 106.806 272.271 107.134 272.725  c
107.462 273.178 107.913 273.404 108.486 273.404  c
109.048 273.404 109.493 273.178 109.822 272.725  c
110.150 272.271 110.314 271.649 110.314 270.857  c
h
118.199 273.139 m
122.339 273.139 l
122.339 274.139 l
116.777 274.139 l
116.777 273.139 l
117.225 272.680 117.837 272.058 118.613 271.271  c
119.389 270.485 119.876 269.977 120.074 269.748  c
120.459 269.331 120.727 268.975 120.878 268.678  c
121.029 268.381 121.105 268.092 121.105 267.811  c
121.105 267.342 120.941 266.962 120.613 266.670  c
120.285 266.378 119.860 266.232 119.339 266.232  c
118.964 266.232 118.571 266.295 118.160 266.420  c
117.748 266.545 117.308 266.743 116.839 267.014  c
116.839 265.811 l
117.318 265.623 117.764 265.480 118.175 265.381  c
118.587 265.282 118.964 265.232 119.308 265.232  c
120.214 265.232 120.938 265.459 121.480 265.912  c
122.021 266.365 122.292 266.972 122.292 267.732  c
122.292 268.087 122.225 268.425 122.089 268.748  c
121.954 269.071 121.709 269.451 121.355 269.889  c
121.251 270.003 120.938 270.331 120.417 270.873  c
119.896 271.415 119.157 272.170 118.199 273.139  c
h
f
2 J
10.0000 M
Q
q
<< /PatternType 2
   /Shading
   << /ShadingType 2
      /ColorSpace /DeviceRGB
      /Coords [4.833333492279053 403.0 204.8333282470703 443.0]
      /Function
      << /FunctionType 2
         /Domain [0 1]
         /Range [0 1 0 1 0 1]
         /C0 [0.9098039 0.93333334 0.96862745]
         /C1 [0.7176471 0.7882353 0.8901961]
         /N 1
      >>
      /Extend [true true]
   >>
>>
matrix makepattern setpattern
newpath
4.83333 403.000 m
204.833 403.000 l
204.833 433.000 l
194.833 443.000 l
14.8333 443.000 l
4.83333 433.000 l
h
f
0 J
1.45000 M
0.00000 0.00000 0.00000 RG
newpath
4.83333 403.000 m
204.833 403.000 l
204.833 433.000 l
194.833 443.000 l
14.8333 443.000 l
4.83333 433.000 l
h
S
2 J
10.0000 M
0 J
1.45000 M
newpath
91.0814 420.592 m
92.1595 420.592 l
92.1595 427.279 l
92.1595 428.113 92.0007 428.717 91.6829 429.092  c
91.3652 429.467 90.8522 429.654 90.1439 429.654  c
89.7376 429.654 l
89.7376 428.732 l
90.0345 428.732 l
90.4408 428.732 90.7168 428.639 90.8626 428.451  c
91.0085 428.264 91.0814 427.873 91.0814 427.279  c
91.0814 420.592 l
h
91.0814 418.029 m
92.1595 418.029 l
92.1595 419.404 l
91.0814 419.404 l
91.0814 418.029 l
h
103.855 423.607 m
103.855 424.123 l
98.8861 424.123 l
98.9382 424.873 99.1647 425.441 99.5658 425.826  c
99.9668 426.212 100.521 426.404 101.230 426.404  c
101.646 426.404 102.050 426.355 102.441 426.256  c
102.831 426.157 103.219 426.003 103.605 425.795  c
103.605 426.826 l
103.209 426.982 102.808 427.105 102.402 427.193  c
101.995 427.282 101.584 427.326 101.167 427.326  c
100.126 427.326 99.2975 427.021 98.6829 426.412  c
98.0684 425.803 97.7611 424.977 97.7611 423.936  c
97.7611 422.863 98.0527 422.011 98.6361 421.381  c
99.2194 420.751 100.001 420.436 100.980 420.436  c
101.865 420.436 102.566 420.719 103.081 421.287  c
103.597 421.855 103.855 422.628 103.855 423.607  c
h
102.777 423.279 m
102.766 422.696 102.600 422.227 102.277 421.873  c
101.954 421.519 101.527 421.342 100.995 421.342  c
100.391 421.342 99.9095 421.514 99.5501 421.857  c
99.1908 422.201 98.9850 422.680 98.9329 423.295  c
102.777 423.279 l
h
111.081 423.186 m
111.081 427.154 l
110.003 427.154 l
110.003 423.232 l
110.003 422.607 109.881 422.141 109.636 421.834  c
109.391 421.527 109.029 421.373 108.550 421.373  c
107.967 421.373 107.506 421.558 107.167 421.928  c
106.829 422.298 106.660 422.805 106.660 423.451  c
106.660 427.154 l
105.581 427.154 l
105.581 420.592 l
106.660 420.592 l
106.660 421.607 l
106.920 421.212 107.225 420.917 107.574 420.725  c
107.923 420.532 108.326 420.436 108.785 420.436  c
109.535 420.436 110.105 420.667 110.495 421.131  c
110.886 421.594 111.081 422.279 111.081 423.186  c
h
117.546 421.592 m
117.546 418.029 l
118.624 418.029 l
118.624 427.154 l
117.546 427.154 l
117.546 426.170 l
117.317 426.555 117.031 426.844 116.687 427.037  c
116.343 427.230 115.926 427.326 115.437 427.326  c
114.645 427.326 113.999 427.008 113.499 426.373  c
112.999 425.738 112.749 424.904 112.749 423.873  c
112.749 422.842 112.999 422.011 113.499 421.381  c
113.999 420.751 114.645 420.436 115.437 420.436  c
115.926 420.436 116.343 420.529 116.687 420.717  c
117.031 420.904 117.317 421.196 117.546 421.592  c
h
113.874 423.873 m
113.874 424.665 114.036 425.287 114.359 425.740  c
114.682 426.193 115.130 426.420 115.702 426.420  c
116.275 426.420 116.726 426.193 117.054 425.740  c
117.382 425.287 117.546 424.665 117.546 423.873  c
117.546 423.081 117.382 422.462 117.054 422.014  c
116.726 421.566 116.275 421.342 115.702 421.342  c
115.130 421.342 114.682 421.566 114.359 422.014  c
114.036 422.462 113.874 423.081 113.874 423.873  c
h
f
2 J
10.0000 M
Q
q
<< /PatternType 2
   /Shading
   << /ShadingType 2
      /ColorSpace /DeviceRGB
      /Coords [4.833333492279053 473.0 204.8333282470703 513.0]
      /Function
      << /FunctionType 2
         /Domain [0 1]
         /Range [0 1 0 1 0 1]
         /C0 [0.9098039 0.93333334 0.96862745]
         /C1 [0.7176471 0.7882353 0.8901961]
         /N 1
      >>
      /Extend [true true]
   >>
>>
matrix makepattern setpattern
newpath
4.83333 473.000 m
204.833 473.000 l
204.833 503.000 l
194.833 513.000 l
14.8333 513.000 l
4.83333 503.000 l
h
f
0 J
1.45000 M
0.00000 0.00000 0.00000 RG
newpath
4.83333 473.000 m
204.833 473.000 l
204.833 503.000 l
194.833 513.000 l
14.8333 513.000 l
4.83333 503.000 l
h
S
2 J
10.0000 M
0 J
1.45000 M
newpath
91.0814 490.592 m
92.1595 490.592 l
92.1595 497.154 l
91.0814 497.154 l
91.0814 490.592 l
h
91.0814 488.029 m
92.1595 488.029 l
92.1595 489.404 l
91.0814 489.404 l
91.0814 488.029 l
h
103.855 493.607 m
103.855 494.123 l
98.8861 494.123 l
98.9382 494.873 99.1647 495.441 99.5658 495.826  c
99.9668 496.212 100.521 496.404 101.230 496.404  c
101.646 496.404 102.050 496.355 102.441 496.256  c
102.831 496.157 103.219 496.003 103.605 495.795  c
103.605 496.826 l
103.209 496.982 102.808 497.105 102.402 497.193  c
101.995 497.282 101.584 497.326 101.167 497.326  c
100.126 497.326 99.2975 497.021 98.6829 496.412  c
98.0684 495.803 97.7611 494.977 97.7611 493.936  c
97.7611 492.863 98.0527 492.011 98.6361 491.381  c
99.2194 490.751 100.001 490.436 100.980 490.436  c
101.865 490.436 102.566 490.719 103.081 491.287  c
103.597 491.855 103.855 492.628 103.855 493.607  c
h
102.777 493.279 m
102.766 492.696 102.600 492.227 102.277 491.873  c
101.954 491.519 101.527 491.342 100.995 491.342  c
100.391 491.342 99.9095 491.514 99.5501 491.857  c
99.1908 492.201 98.9850 492.680 98.9329 493.295  c
102.777 493.279 l
h
111.081 493.186 m
111.081 497.154 l
110.003 497.154 l
110.003 493.232 l
110.003 492.607 109.881 492.141 109.636 491.834  c
109.391 491.527 109.029 491.373 108.550 491.373  c
107.967 491.373 107.506 491.558 107.167 491.928  c
106.829 492.298 106.660 492.805 106.660 493.451  c
106.660 497.154 l
105.581 497.154 l
105.581 490.592 l
106.660 490.592 l
106.660 491.607 l
106.920 491.212 107.225 490.917 107.574 490.725  c
107.923 490.532 108.326 490.436 108.785 490.436  c
109.535 490.436 110.105 490.667 110.495 491.131  c
110.886 491.594 111.081 492.279 111.081 493.186  c
h
117.546 491.592 m
117.546 488.029 l
118.624 488.029 l
118.624 497.154 l
117.546 497.154 l
117.546 496.170 l
117.317 496.555 117.031 496.844 116.687 497.037  c
116.343 497.230 115.926 497.326 115.437 497.326  c
114.645 497.326 113.999 497.008 113.499 496.373  c
112.999 495.738 112.749 494.904 112.749 493.873  c
112.749 492.842 112.999 492.011 113.499 491.381  c
113.999 490.751 114.645 490.436 115.437 490.436  c
115.926 490.436 116.343 490.529 116.687 490.717  c
117.031 490.904 117.317 491.196 117.546 491.592  c
h
113.874 493.873 m
113.874 494.665 114.036 495.287 114.359 495.740  c
114.682 496.193 115.130 496.420 115.702 496.420  c
116.275 496.420 116.726 496.193 117.054 495.740  c
117.382 495.287 117.546 494.665 117.546 493.873  c
117.546 493.081 117.382 492.462 117.054 492.014  c
116.726 491.566 116.275 491.342 115.702 491.342  c
115.130 491.342 114.682 491.566 114.359 492.014  c
114.036 492.462 113.874 493.081 113.874 493.873  c
h
f
2 J
10.0000 M
Q
0 J
1.45000 M
newpath
104.833 40.0000 m
104.833 61.9707 l
S
newpath
104.833 69.9707 m
109.833 57.9707 l
104.833 60.9707 l
99.8333 57.9707 l
h
f
2 J
10.0000 M
0 J
1.45000 M
newpath
104.833 110.000 m
104.833 131.971 l
S
newpath
104.833 139.971 m
109.833 127.971 l
104.833 130.971 l
99.8333 127.971 l
h
f
2 J
10.0000 M
0 J
1.45000 M
newpath
104.833 213.000 m
104.833 234.971 l
S
newpath
104.833 242.971 m
109.833 230.971 l
104.833 233.971 l
99.8333 230.971 l
h
f
2 J
10.0000 M
0 J
1.45000 M
newpath
104.833 283.000 m
104.833 304.971 l
S
newpath
104.833 312.971 m
109.833 300.971 l
104.833 303.971 l
99.8333 300.971 l
h
f
2 J
10.0000 M
0 J
1.45000 M
newpath
104.833 373.000 m
104.833 394.971 l
S
newpath
104.833 402.971 m
109.833 390.971 l
104.833 393.971 l
99.8333 390.971 l
h
f
2 J
10.0000 M
0 J
1.45000 M
newpath
104.833 443.000 m
104.833 464.971 l
S
newpath
104.833 472.971 m
109.833 460.971 l
104.833 463.971 l
99.8333 460.971 l
h
f
2 J
10.0000 M
0 J
1.45000 M
newpath
104.833 513.000 m
104.833 535.000 l
S
newpath
104.833 543.000 m
109.833 531.000 l
104.833 534.000 l
99.8333 531.000 l
h
f
2 J
10.0000 M
Q
[ 1.00000 0.00000 0.00000 1.00000 0.00000 0.00000 ] defaultmatrix matrix concatmatrix setmatrix
cliprestore

%%Trailer
%%EOF
